Context Words: nature can not be 
fully 0.268049 
depicted 0.039171 
determined 0.585253 
unveiled 0.107527 
Context Words: get away from that 
! 0.149144 
window 0.391198 
door 0.405868 
. 0.053790 
Context Words: 3 ) , and 
over 0.195545 
include 0.349010 
data 0.128713 
7 0.326733 
Context Words: n , m , 
and 0.114914 
p 0.190709 
s 0.364303 
n 0.330073 
Context Words: t - cell leukemia 
virus 0.113529 
[ 0.030000 
is 0.084706 
. 0.771765 
Context Words: n , respectively , 
and 0.238095 
as 0.273810 
where 0.265873 
over 0.222222 
Context Words: square of the particle 
volume 0.058475 
diameter 0.777119 
charge 0.072881 
mass 0.091525 
Context Words: psychological well - being 
among 0.187891 
of 0.662839 
in 0.058455 
if 0.090814 
Context Words: square foot , and 
then 0.023614 
the 0.797138 
with 0.029696 
that 0.149553 
Context Words: n is even , 
and 0.299169 
the 0.174515 
say 0.227147 
it 0.299169 
Context Words: 5 and 6 ) 
as 0.184791 
where 0.095817 
' 0.041825 
were 0.677567 
Context Words: home , and i 
leave 0.043086 
arrived 0.043086 
carried 0.054108 
told 0.859719 
Context Words: 5 ) , p. 
25 0.262570 
26 0.301676 
38 0.136872 
142 0.298883 
Context Words: etc. , are often 
not 0.270270 
employed 0.327703 
given 0.263514 
referred 0.138514 
Context Words: egyptian president hosni mubarak 
on 0.081505 
was 0.068966 
, 0.730408 
in 0.119122 
Context Words: uzbekistan , and tajikistan 
) 0.156966 
to 0.077601 
, 0.241623 
. 0.523810 
Context Words: nature of the material 
within 0.054243 
with 0.740602 
studied 0.119764 
requires 0.085392 
Context Words: r. , 5 , 
11 0.253769 
13 0.296482 
15 0.193467 
17 0.256281 
Context Words: old man , with 
locks 0.121239 
all 0.539823 
great 0.285841 
neither 0.053097 
Context Words: r. , and h. 
L. 0.228296 
T. 0.085209 
J. 0.316720 
A. 0.369775 
Context Words: old house , and 
stretches 0.233677 
you 0.378007 
have 0.226804 
keep 0.161512 
Context Words: r. , 12 , 
18 0.169849 
13 0.588945 
27 0.063317 
17 0.177889 
Context Words: old woman , and 
beyond 0.017026 
with 0.077185 
especially 0.014756 
she 0.891033 
Context Words: r. , davis , 
L. 0.341207 
M. 0.370079 
P. 0.144357 
F. 0.144357 
Context Words: eyes of the law 
be 0.063762 
where 0.042508 
to 0.743889 
that 0.149841 
Context Words: r. , scott , 
L. 0.179907 
G. 0.119159 
R. 0.471963 
C. 0.228972 
Context Words: jr. was born on 
November 0.306792 
July 0.252927 
June 0.180328 
August 0.259953 
Context Words: twenty -- first century 
as 0.052802 
: 0.211207 
would 0.322198 
have 0.413793 
Context Words: cut off , and 
other 0.542411 
compelled 0.169643 
saint 0.136161 
he 0.151786 
Context Words: etc. , are not 
being 0.274298 
appropriate 0.092873 
merely 0.507559 
separate 0.125270 
Context Words: j. hill , and 
D. 0.371134 
the 0.337629 
John 0.157216 
other 0.134021 
Context Words: katz , j. ( 
1999 0.279279 
1993 0.167568 
1995 0.293694 
1997 0.259459 
Context Words: ahead of the rest 
and 0.820598 
? 0.074197 
' 0.057586 
at 0.047619 
Context Words: uzbekistan , kyrgyzstan , 
and 0.535836 
Tajikistan 0.279863 
Kazakhstan 0.085324 
Turkmenistan 0.098976 
Context Words: ahead of the meeting 
and 0.198795 
date 0.138554 
, 0.521084 
time 0.141566 
Context Words: r. , myers , 
G. 0.168421 
J. 0.284211 
C. 0.259649 
R. 0.287719 
Context Words: d. c. , april 
30 0.260090 
5 0.251121 
14 0.295964 
6 0.192825 
Context Words: etc. , and a 
volume 0.146758 
smaller 0.163823 
similar 0.378840 
special 0.310580 
Context Words: skills as well as 
team 0.172840 
increased 0.283951 
understanding 0.329218 
research 0.213992 
Context Words: katz , d. ( 
1951 0.155894 
1979 0.178707 
1953 0.395437 
1994 0.269962 
Context Words: d. c. , may 
24 0.263393 
26 0.254464 
31 0.272321 
22 0.209821 
Context Words: 62 , 69 , 
120 0.223464 
124 0.229050 
118 0.236499 
112 0.310987 
Context Words: ahead of the schedule 
laid 0.377273 
time 0.240909 
for 0.181818 
that 0.200000 
Context Words: p. , and f. 
G. 0.217532 
B. 0.142857 
J. 0.407468 
S. 0.232143 
Context Words: ahead of his age 
and 0.133562 
as 0.044521 
in 0.265411 
. 0.556507 
Context Words: g. , and h. 
G. 0.400167 
H. 0.283208 
C. 0.272348 
K. 0.044277 
Context Words: j. v. , and 
Bailey 0.163978 
wood 0.201613 
M. 0.510753 
Valentine 0.123656 
Context Words: c. i am , 
dear 0.327366 
sir 0.381074 
with 0.138107 
& 0.153453 
Context Words: d. p. , & 
Miller 0.168582 
Cooper 0.302682 
Alfonso 0.321839 
Zimmerman 0.206897 
Context Words: 63 , 87 , 
143 0.064371 
92 0.625749 
107 0.220060 
136 0.089820 
Context Words: eyes and ears are 
opened 0.388889 
also 0.232026 
like 0.143791 
alert 0.235294 
Context Words: axis , and , 
on 0.093254 
at 0.158730 
for 0.160714 
in 0.587302 
Context Words: ahead of time ) 
and 0.144928 
to 0.083333 
that 0.048551 
. 0.723188 
Context Words: 63 , 67 , 
90 0.153976 
117 0.051981 
73 0.778309 
170 0.015735 
Context Words: ahead of them in 
a 0.165744 
the 0.808232 
every 0.012920 
time 0.013104 
Context Words: rhodes , cecil , 
25 0.250000 
2 0.291667 
54 0.213542 
105 0.244792 
Context Words: ahead of those of 
most 0.283537 
its 0.371951 
her 0.204268 
our 0.140244 
Context Words: c. he was a 
very 0.178218 
great 0.132013 
native 0.478548 
man 0.211221 
Context Words: ahead with the project 
was 0.179620 
or 0.179620 
? 0.295337 
in 0.345423 
Context Words: fha , va , 
and 0.613880 
conventional 0.032808 
Fannie 0.034700 
or 0.318612 
Context Words: average annual income of 
our 0.012887 
the 0.863080 
workers 0.035760 
£ 0.088273 
Context Words: g. , jr. , 
( 0.435484 
M. 0.203226 
who 0.216129 
glass 0.145161 
Context Words: m in for it 
! 0.136364 
now 0.269481 
, 0.363636 
. 0.230519 
Context Words: dynamic view of the 
process 0.145695 
world 0.666225 
human 0.082119 
nature 0.105960 
Context Words: m in height and 
10 0.163077 
crosses 0.172308 
5 0.166154 
are 0.498462 
Context Words: c. i told him 
i 0.225941 
that 0.330544 
, 0.303347 
it 0.140167 
Context Words: m with respect to 
( 0.183784 
the 0.205405 
both 0.381081 
an 0.229730 
Context Words: c. these are the 
most 0.186851 
only 0.373702 
two 0.190311 
words 0.249135 
Context Words: ability to respond to 
light 0.281955 
price 0.259398 
increasing 0.266917 
beauty 0.191729 
Context Words: g. , and w. 
O. 0.062709 
R. 0.311037 
F. 0.262542 
A. 0.363712 
Context Words: m ) , which 
lies 0.187175 
allows 0.112652 
was 0.488735 
in 0.211438 
Context Words: ghosts , spirits , 
and 0.211896 
the 0.241636 
whatsoever 0.234201 
demons 0.312268 
Context Words: m - i - 
1 0.198238 
a 0.160793 
m 0.473568 
t 0.167401 
Context Words: ideally suited to the 
performance 0.272727 
presentation 0.263158 
' 0.258373 
internet 0.205742 
Context Words: m - 16 and 
AK 0.252055 
his 0.134247 
m 0.465753 
an 0.147945 
Context Words: p. 23 ) , 
and 0.096552 
says 0.117241 
they 0.163218 
' 0.622989 
Context Words: m can not be 
a 0.467085 
0 0.210031 
determined 0.156740 
greater 0.166144 
Context Words: g. , 144 , 
150 0.238342 
154 0.217617 
148 0.316062 
149 0.227979 
Context Words: o o 0 o 
a 0.023280 
( 0.018416 
o 0.408965 
0 0.549340 
Context Words: keenly aware of the 
work 0.339623 
positive 0.202830 
sense 0.216981 
ideological 0.240566 
Context Words: m just telling you 
how 0.100671 
what 0.471477 
, 0.152685 
that 0.275168 
Context Words: ngos , and international 
environmental 0.239564 
agencies 0.166969 
organizations 0.484574 
institutions 0.108893 
Context Words: errors as well as 
of 0.426150 
providing 0.099274 
variations 0.176755 
those 0.297821 
Context Words: g. , murray , 
R. 0.312865 
B. 0.166667 
E. 0.175439 
J. 0.345029 
Context Words: my wife , and 
entered 0.340807 
his 0.307175 
love 0.112108 
shall 0.239910 
Context Words: pyramid , which is 
a 0.187500 
not 0.178571 
the 0.410714 
in 0.223214 
Context Words: m really going to 
enjoy 0.193966 
be 0.318966 
have 0.288793 
get 0.198276 
Context Words: g. ( 2004 , 
April 0.367347 
February 0.207483 
march 0.265306 
December 0.159864 
Context Words: m pretty sure it 
will 0.090293 
is 0.153499 
was 0.507901 
' 0.248307 
Context Words: pyramid , with a 
very 0.113580 
broad 0.338272 
base 0.296296 
few 0.251852 
Context Words: ice age , and 
then 0.145729 
we 0.133166 
it 0.263819 
that 0.457286 
Context Words: axis , in the 
absence 0.110680 
direction 0.563107 
second 0.174757 
centre 0.151456 
Context Words: m wide , and 
a 0.395062 
the 0.138889 
0.5 0.151235 
it 0.314815 
Context Words: dhaka , bangladesh : 
university 0.518717 
international 0.085561 
the 0.151515 
Bangladesh 0.244207 
Context Words: appears to have no 
need 0.403670 
biological 0.137615 
way 0.201835 
independent 0.256881 
Context Words: iq scores of the 
students 0.160494 
children 0.345679 
same 0.157407 
two 0.336420 
Context Words: own eyes , and 
as 0.438679 
my 0.172956 
is 0.259434 
seize 0.128931 
Context Words: kgb , and the 
military 0.494915 
communist 0.169492 
armed 0.189831 
Soviet 0.145763 
Context Words: t in this case 
) 0.199319 
is 0.335605 
, 0.373083 
we 0.091993 
Context Words: iceland , japan , 
Liechtenstein 0.102881 
Korea 0.446502 
the 0.286008 
Luxembourg 0.164609 
Context Words: mr. president , and 
gentlemen 0.509322 
you 0.368644 
members 0.050000 
if 0.072034 
Context Words: omitted the words " 
and 0.398990 
of 0.166667 
the 0.143939 
in 0.290404 
Context Words: use of the term 
generation 0.160000 
imitation 0.258182 
interest 0.269091 
citizen 0.312727 
Context Words: omitted , it is 
a 0.286517 
the 0.284644 
requisite 0.338951 
called 0.089888 
Context Words: e - l - 
y 0.081614 
p 0.479362 
e 0.354597 
d 0.084428 
Context Words: p. 148 ) , 
that 0.376087 
which 0.276087 
although 0.117391 
he 0.230435 
Context Words: aaron and his descendants 
to 0.159393 
as 0.085389 
, 0.335863 
. 0.419355 
Context Words: p. 14 ) , 
was 0.341603 
there 0.248092 
says 0.187023 
are 0.223282 
Context Words: cent of the amount 
needed 0.016255 
received 0.033455 
it 0.010522 
of 0.939768 
Context Words: p. for example , 
when 0.127496 
the 0.738863 
let 0.062980 
if 0.070661 
Context Words: ice cream , you 
will 0.171378 
'll 0.212014 
can 0.464664 
would 0.151943 
Context Words: hr , and ( 
3 0.190813 
b 0.272085 
c 0.346290 
d 0.190813 
Context Words: system in order to 
insure 0.182504 
bring 0.745852 
clear 0.037707 
counteract 0.033937 
Context Words: hr / day , 
and 0.058109 
5 0.758023 
7 0.131830 
6 0.052038 
Context Words: centre of the city 
was 0.037540 
from 0.388978 
around 0.044728 
. 0.528754 
Context Words: ayrshire , scotland , 
on 0.515385 
was 0.189744 
where 0.166667 
to 0.128205 
Context Words: each of these two 
facts 0.222222 
rules 0.143369 
zones 0.347670 
letters 0.286738 
Context Words: p. 21 ) , 
( 0.163569 
however 0.185874 
by 0.152416 
he 0.498141 
Context Words: each of us must 
work 0.116063 
be 0.587047 
contribute 0.019878 
have 0.277012 
Context Words: odor , and the 
color 0.309701 
odor 0.253731 
same 0.227612 
farmer 0.208955 
Context Words: each other , to 
assassinate 0.093306 
promote 0.320487 
tell 0.419878 
prepare 0.166329 
Context Words: p. 162 ) , 
this 0.132743 
is 0.327434 
who 0.278761 
he 0.261062 
Context Words: m. a. , r. 
W. 0.257840 
H. 0.222997 
S. 0.261324 
F. 0.257840 
Context Words: p. 75 ) , 
a 0.150685 
and 0.255708 
as 0.249619 
" 0.343988 
Context Words: m. k. , and 
Miller 0.195266 
Harris 0.139053 
P. 0.337278 
child 0.328402 
Context Words: p. 18 ) , 
the 0.520934 
it 0.137681 
but 0.285024 
he 0.056361 
Context Words: ice to the head 
and 0.212061 
; 0.072896 
, 0.671968 
is 0.043075 
Context Words: p. 65 ) , 
to 0.141443 
while 0.175389 
" 0.339463 
that 0.343706 
Context Words: ice of the lake 
and 0.175274 
in 0.076682 
was 0.126761 
. 0.621283 
Context Words: p. 83 ) , 
a 0.504505 
then 0.117117 
is 0.274775 
have 0.103604 
Context Words: ice in the winter 
-- 0.022272 
and 0.258352 
; 0.046771 
, 0.672606 
Context Words: p. 52 ) , 
a 0.139315 
at 0.047226 
which 0.492326 
that 0.321133 
Context Words: ice in the north 
and 0.162791 
polar 0.080711 
Atlantic 0.660739 
sea 0.095759 
Context Words: p. 57 ) , 
in 0.422096 
so 0.192635 
by 0.223796 
if 0.161473 
Context Words: types of reactions are 
not 0.245192 
as 0.225962 
used 0.230769 
the 0.298077 
Context Words: v , and the 
following 0.098765 
distance 0.238683 
second 0.567901 
wave 0.094650 
Context Words: symptoms and signs are 
usually 0.259701 
variable 0.274627 
severe 0.200000 
less 0.265672 
Context Words: ugly , and he 
was 0.337434 
is 0.135325 
has 0.137083 
had 0.390158 
Context Words: human relationships , and 
their 0.048824 
the 0.866844 
thus 0.057701 
under 0.026631 
Context Words: f , e , 
and 0.098684 
h 0.304825 
s 0.486842 
etc. 0.109649 
Context Words: at first , then 
settling 0.043937 
as 0.868190 
five 0.047452 
comes 0.040422 
Context Words: 82 , 101 , 
1 0.237847 
147 0.102431 
122 0.250000 
116 0.409722 
Context Words: urban and rural communities 
as 0.097908 
where 0.058577 
, 0.781590 
which 0.061925 
Context Words: 82 , 119 , 
147 0.129114 
139 0.240506 
124 0.516456 
158 0.113924 
Context Words: board of directors has 
elected 0.066972 
approved 0.359633 
been 0.517431 
ultimate 0.055963 
Context Words: f ( x , 
y 0.297125 
p 0.305112 
t 0.222045 
v 0.175719 
Context Words: up into the air 
... 0.027807 
as 0.591087 
while 0.044920 
to 0.336185 
Context Words: ideal , it is 
to 0.134454 
clear 0.498599 
rarely 0.117647 
only 0.249300 
Context Words: two of the best 
indicators 0.169231 
we 0.181538 
educated 0.184615 
teachers 0.464615 
Context Words: f ( 2 , 
60 0.238213 
10 0.401985 
44 0.171216 
l 0.188586 
Context Words: two or three weeks 
later 0.474554 
back 0.021861 
' 0.451989 
if 0.051596 
Context Words: 99 , 101 , 
158 0.133111 
196 0.084027 
125 0.712146 
183 0.070715 
Context Words: two or three days 
and 0.980182 
on 0.003501 
does 0.003086 
some 0.013232 
Context Words: 84 , 97 , 
170 0.048309 
116 0.170290 
148 0.080918 
105 0.700483 
Context Words: two or three other 
prisoners 0.237500 
villages 0.370000 
birds 0.197500 
' 0.195000 
Context Words: ugly , it is 
a 0.154303 
not 0.400593 
all 0.258160 
stupid 0.186944 
Context Words: equal to marginal costs 
and 0.414248 
( 0.279683 
; 0.124011 
is 0.182058 
Context Words: 84 , 91 , 
133 0.155059 
121 0.331143 
173 0.067017 
112 0.446781 
Context Words: it can not be 
objected 0.676151 
random 0.040586 
inserted 0.266527 
actually 0.016736 
Context Words: cd , however , 
we 0.234201 
is 0.286245 
the 0.241636 
you 0.237918 
Context Words: t = time in 
seconds 0.360825 
minutes 0.215022 
days 0.137703 
years 0.286451 
Context Words: 84 , 122 , 
133 0.175559 
129 0.354561 
142 0.118761 
126 0.351119 
Context Words: tv or not tv 
: 0.252101 
, 0.291317 
? 0.336134 
. 0.120448 
Context Words: egg , and a 
couple 0.119534 
piece 0.352770 
number 0.125364 
cup 0.402332 
Context Words: some of the other 
surrounding 0.248092 
good 0.160305 
systems 0.438931 
justices 0.152672 
Context Words: at the beginning , 
very 0.030985 
written 0.026316 
three 0.031834 
in 0.910866 
Context Words: t = 0 with 
a 0.320988 
the 0.368313 
no 0.090535 
an 0.220165 
Context Words: about the child 's 
fears 0.089017 
safety 0.426590 
experiences 0.292486 
upbringing 0.191908 
Context Words: tv show , it 
was 0.274436 
is 0.248120 
's 0.240602 
would 0.236842 
Context Words: however , do not 
control 0.460993 
jump 0.312057 
link 0.092199 
fret 0.134752 
Context Words: fda ) , which 
regulates 0.224652 
is 0.443340 
has 0.252485 
was 0.079523 
Context Words: however , has been 
found 0.953911 
thus 0.009548 
passed 0.018546 
how 0.017995 
Context Words: fda - approved drug 
that 0.094421 
, 0.216738 
for 0.560086 
. 0.128755 
Context Words: types , which , 
like 0.217009 
by 0.152493 
although 0.302053 
for 0.328446 
Context Words: fda approval for use 
of 0.089269 
as 0.107312 
with 0.047483 
in 0.755935 
Context Words: however , in this 
domain 0.018498 
description 0.010920 
thesis 0.046579 
particular 0.924003 
Context Words: kind of self - 
mastery 0.214467 
determining 0.074873 
complacency 0.154822 
evident 0.555838 
Context Words: however , in a 
parliamentary 0.049272 
certain 0.769317 
legal 0.124300 
subject 0.057111 
Context Words: kind and degree of 
autonomy 0.163636 
suffering 0.369697 
exercise 0.278788 
cooperation 0.187879 
Context Words: iv ) , the 
only 0.192547 
fifteen 0.381988 
same 0.142857 
first 0.282609 
Context Words: ill - health and 
inadequate 0.192453 
went 0.184906 
their 0.377358 
sickness 0.245283 
Context Words: iv of this book 
( 0.213362 
we 0.288793 
discusses 0.129310 
for 0.368534 
Context Words: oklahoma press , 1950 
) 0.393804 
; 0.022014 
, 0.063188 
. 0.520995 
Context Words: curiously enough , the 
presence 0.261905 
book 0.357143 
common 0.162698 
authors 0.218254 
Context Words: e. e. , and 
brown 0.262712 
M. 0.322034 
H. 0.356992 
Mitchell 0.058263 
Context Words: ewing of ohio , 
and 0.247475 
the 0.207071 
who 0.217172 
secretary 0.328283 
Context Words: e. g. , in 
water 0.139932 
such 0.136519 
all 0.143345 
" 0.580205 
Context Words: mv at room temperature 
) 0.284916 
( 0.089385 
, 0.184358 
. 0.441341 
Context Words: ignored in favor of 
the 0.806850 
" 0.060167 
some 0.027152 
more 0.105832 
Context Words: education association , the 
status 0.354610 
state 0.269504 
, 0.226950 
women 0.148936 
Context Words: n ) , as 
a 0.118457 
shown 0.280992 
well 0.123967 
the 0.476584 
Context Words: takes place , the 
couple 0.151376 
space 0.081040 
rate 0.553517 
next 0.214067 
Context Words: even more important to 
carry 0.066830 
Britain 0.042380 
consider 0.550122 
see 0.340668 
Context Words: eye - hand coordination 
exercises 0.185864 
during 0.191099 
problems 0.492147 
- 0.130890 
Context Words: n or p ) 
and 0.254144 
of 0.237569 
, 0.281768 
. 0.226519 
Context Words: md & a disclosure 
of 0.362981 
is 0.117788 
, 0.312500 
. 0.206731 
Context Words: n - i - 
k 0.102787 
t 0.376307 
l 0.099303 
n 0.421603 
Context Words: aesthetic and the ethical 
-- 0.186916 
( 0.228972 
; 0.345794 
stages 0.238318 
Context Words: nitrogen and organic matter 
( 0.094340 
is 0.159329 
are 0.211740 
to 0.534591 
Context Words: aesthetics and politics , 
Ed 0.384365 
" 0.127036 
london 0.412595 
edited 0.076004 
Context Words: n = 9 ) 
( 0.371622 
had 0.157658 
or 0.204955 
were 0.265766 
Context Words: okay with me if 
the 0.152493 
we 0.219941 
they 0.196481 
he 0.431085 
Context Words: n = 65 ) 
and 0.133621 
( 0.183190 
, 0.275862 
. 0.407328 
Context Words: ehrlich and ehrlich ( 
1990 0.297352 
1981 0.344196 
1972 0.138493 
1970 0.219959 
Context Words: katz v. united states 
applied 0.005251 
supreme 0.007757 
, 0.980785 
that 0.006206 
Context Words: essay on " the 
rhetoric 0.157767 
american 0.432039 
political 0.303398 
effect 0.106796 
Context Words: n = 38 ) 
and 0.221566 
( 0.264402 
of 0.090103 
. 0.423929 
Context Words: ldl - cholesterol level 
of 0.259669 
is 0.218232 
, 0.215470 
. 0.306630 
Context Words: n = 55 ) 
( 0.295820 
of 0.109325 
, 0.270096 
. 0.324759 
Context Words: mg by mouth every 
8 0.126904 
4 0.182741 
day 0.167513 
6 0.522843 
Context Words: etc. ) , which 
had 0.526868 
depend 0.057667 
makes 0.336828 
determine 0.078637 
Context Words: ldl - c level 
of 0.319410 
is 0.272727 
, 0.142506 
. 0.265356 
Context Words: n = 83 ) 
and 0.191406 
( 0.191406 
, 0.308594 
. 0.308594 
Context Words: illustrated london news , 
a 0.223368 
10 0.374570 
from 0.051546 
23 0.350515 
Context Words: r. t. , and 
D. 0.601064 
Michaels 0.076241 
Williams 0.184397 
Boyd 0.138298 
Context Words: i. e. , an 
instrument 0.310000 
average 0.210000 
individual 0.270000 
actual 0.210000 
Context Words: defined in terms of 
things 0.348315 
single 0.346442 
ego 0.099251 
special 0.205993 
Context Words: cdu and the spd 
in 0.134199 
, 0.415584 
have 0.090909 
. 0.359307 
Context Words: c. m. , j. 
D. 0.273312 
R. 0.305466 
E. 0.247588 
am 0.173633 
Context Words: i. e. , " 
a 0.132653 
to 0.127551 
the 0.674927 
in 0.064869 
Context Words: c. m. , and 
O. 0.140468 
brown 0.394649 
white 0.254181 
gross 0.210702 
Context Words: mg daily for a 
few 0.254848 
minimum 0.340720 
period 0.260388 
further 0.144044 
Context Words: c. r. , & 
Roethlisberger 0.275081 
Hansen 0.142395 
Smith 0.349515 
Stafford 0.233010 
Context Words: irrespective of the time 
during 0.127072 
when 0.301105 
, 0.267956 
of 0.303867 
Context Words: c. p. , and 
gross 0.093160 
C. 0.417453 
N. 0.081368 
A. 0.408019 
Context Words: ldl ) cholesterol , 
and 0.646648 
high 0.093575 
the 0.138268 
which 0.121508 
Context Words: c. g. s. system 
the 0.306150 
; 0.068182 
is 0.391711 
. 0.233957 
Context Words: ct and mri scanning 
are 0.249471 
, 0.329810 
have 0.099366 
. 0.321353 
Context Words: c. n. , and 
Thompson 0.139364 
C. 0.371638 
Murray 0.163814 
A. 0.325183 
Context Words: ignorant of them , 
as 0.391892 
since 0.209459 
are 0.153153 
if 0.245495 
Context Words: ngos and local communities 
to 0.145401 
in 0.178042 
, 0.243323 
. 0.433234 
Context Words: ignorant of the fact 
as 0.393795 
" 0.105012 
or 0.346062 
he 0.155131 
Context Words: iq and school achievement 
tests 0.155235 
, 0.259928 
? 0.144404 
. 0.440433 
Context Words: tb ) is a 
chronic 0.321321 
bacterial 0.162162 
disease 0.210210 
major 0.306306 
Context Words: bless you , and 
preserve 0.409928 
my 0.158527 
remember 0.076861 
grant 0.354684 
Context Words: ignorant of the real 
wants 0.296296 
objects 0.164609 
, 0.255144 
power 0.283951 
Context Words: g. a. , & 
nicely 0.331731 
Anderson 0.252404 
Taylor 0.310096 
Kennedy 0.105769 
Context Words: ignorant of its real 
motive 0.134959 
origin 0.069919 
character 0.230894 
nature 0.564228 
Context Words: omitted in the following 
) 0.134228 
editions 0.089485 
pages 0.261745 
sentences 0.514541 
Context Words: ignorant of the whole 
lecture 0.135220 
circle 0.141509 
art 0.569182 
truth 0.154088 
Context Words: g. g. , and 
v. 0.192237 
R. 0.478743 
K. 0.114603 
Johnson 0.214418 
Context Words: ignorant of the fate 
of 0.601266 
preparing 0.084388 
to 0.088608 
in 0.225738 
Context Words: omitted from the first 
and 0.334559 
draft 0.250000 
- 0.198529 
English 0.216912 
Context Words: md & a is 
a 0.163043 
not 0.146739 
intended 0.407609 
to 0.282609 
Context Words: g. t. , and 
D. 0.272395 
G. 0.166362 
green 0.084095 
C. 0.477148 
Context Words: 7th of june , 
taking 0.063800 
by 0.199723 
for 0.084605 
in 0.651872 
Context Words: euthanasia and assisted suicide 
; 0.043478 
: 0.080210 
were 0.064468 
. 0.811844 
Context Words: owing to the increased 
concentration 0.127907 
influence 0.043605 
number 0.772287 
accuracy 0.056202 
Context Words: axis of the part 
and 0.184615 
( 0.115385 
, 0.364103 
of 0.335897 
Context Words: ubiquitous in the literature 
of 0.385714 
on 0.220000 
, 0.154286 
. 0.240000 
Context Words: axis of the main 
field 0.392216 
street 0.206587 
hall 0.131737 
shaft 0.269461 
Context Words: ct and mri have 
a 0.176152 
become 0.146341 
the 0.116531 
been 0.560976 
Context Words: axis of the root 
( 0.108924 
; 0.040026 
, 0.267060 
. 0.583990 
Context Words: sketch of his life 
and 0.897638 
i 0.026083 
or 0.021654 
up 0.054626 
Context Words: axis of the instrument 
to 0.061126 
; 0.057985 
with 0.011355 
. 0.869534 
Context Words: kuwait city , kuwait 
( 0.252903 
: 0.046452 
, 0.093548 
. 0.607097 
Context Words: axis of the shaft 
in 0.442623 
are 0.245902 
can 0.170492 
. 0.140984 
Context Words: ultimate truth , but 
a 0.244444 
rather 0.307407 
as 0.262963 
in 0.185185 
Context Words: axis of rotation and 
hence 0.180142 
to 0.412766 
with 0.096454 
its 0.310638 
Context Words: s to say , 
to 0.166667 
in 0.393333 
it 0.200000 
he 0.240000 
Context Words: hr 5 / 5 
) 0.165966 
( 0.132353 
column 0.563025 
, 0.138655 
Context Words: omaha world herald , 
and 0.187251 
December 0.338645 
the 0.171315 
" 0.302789 
Context Words: p. 5 , and 
September 0.216667 
January 0.237500 
November 0.300000 
his 0.245833 
Context Words: ct scan is not 
a 0.144000 
available 0.589333 
necessary 0.152000 
diagnostic 0.114667 
Context Words: uci machine learning repository 
( 0.124150 
[ 0.544218 
, 0.137755 
. 0.193878 
Context Words: ct scan , but 
this 0.152482 
the 0.446809 
it 0.234043 
MRI 0.166667 
Context Words: p. r. , and 
ward 0.114786 
Harris 0.138132 
C. 0.618677 
Shaw 0.128405 
Context Words: ct scan is performed 
to 0.416880 
with 0.135550 
, 0.163683 
. 0.283887 
Context Words: physician - patient privilege 
should 0.149660 
or 0.231293 
nor 0.180272 
. 0.438776 
Context Words: ct scan revealed a 
large 0.507853 
small 0.167539 
right 0.125654 
left 0.198953 
Context Words: f as well as 
a 0.191816 
of 0.140665 
the 0.534527 
in 0.132992 
Context Words: ct scan is usually 
the 0.199115 
normal 0.314159 
performed 0.207965 
diagnostic 0.278761 
Context Words: guaranteed by the constitution 
and 0.523321 
; 0.422348 
had 0.030241 
[ 0.024090 
Context Words: ct scan is negative 
and 0.144208 
or 0.115839 
, 0.465721 
. 0.274232 
Context Words: close to the fire 
or 0.347134 
but 0.232484 
? 0.156051 
he 0.264331 
Context Words: oil in the ground 
) 0.104980 
-- 0.078062 
is 0.713324 
that 0.103634 
Context Words: auspices of the council 
and 0.023179 
of 0.878502 
are 0.037188 
. 0.061131 
Context Words: pm in diameter , 
and 0.461538 
the 0.133903 
with 0.247863 
which 0.156695 
Context Words: european states , and 
a 0.350459 
to 0.361468 
there 0.082569 
especially 0.205505 
Context Words: pm to 6 pm 
) 0.198142 
; 0.160991 
, 0.399381 
. 0.241486 
Context Words: p.m. on the 27th 
of 0.172911 
the 0.080692 
, 0.551873 
. 0.194524 
Context Words: slope of the line 
differs 0.063542 
AB 0.114583 
defining 0.071875 
? 0.750000 
Context Words: ultimate purpose is to 
serve 0.176606 
become 0.114679 
make 0.600917 
ensure 0.107798 
Context Words: oil of california , 
to 0.115672 
the 0.404851 
which 0.384328 
Pacific 0.095149 
Context Words: gulf of mexico and 
Brazil 0.217262 
found 0.151786 
the 0.360119 
lake 0.270833 
Context Words: psychology of learning , 
and 0.197619 
etc. 0.340476 
especially 0.161905 
in 0.300000 
Context Words: s name , and 
there 0.078387 
when 0.175812 
for 0.222844 
in 0.522956 
Context Words: psychology of the unconscious 
as 0.270270 
" 0.364865 
is 0.202703 
that 0.162162 
Context Words: aquatic in its habits 
and 0.056645 
as 0.078431 
, 0.700436 
than 0.164488 
Context Words: s words , " 
almost 0.236515 
some 0.294606 
would 0.298755 
African 0.170124 
Context Words: ignorant of the law 
he 0.239819 
at 0.285068 
they 0.262443 
by 0.212670 
Context Words: s just that i 
did 0.170659 
was 0.197605 
am 0.122754 
want 0.508982 
Context Words: ltd. v. commissioner of 
inland 0.199372 
stamp 0.251177 
taxation 0.430141 
works 0.119309 
Context Words: oil on wood , 
25 0.220833 
26 0.195833 
20 0.379167 
65 0.204167 
Context Words: aquatic and terrestrial environments 
and 0.067623 
( 0.081967 
, 0.222336 
. 0.628074 
Context Words: oil in the oil 
-- 0.160584 
fields 0.302920 
tube 0.354015 
bath 0.182482 
Context Words: ebb of his fortunes 
; 0.096000 
had 0.068000 
, 0.521333 
. 0.314667 
Context Words: oil in a small 
dish 0.068517 
glass 0.076323 
pan 0.813530 
cup 0.041631 
Context Words: czechoslovakia as well as 
to 0.096447 
the 0.448393 
from 0.087986 
in 0.367174 
Context Words: s no reason why 
a 0.166969 
i 0.544465 
she 0.099819 
they 0.188748 
Context Words: aquatic and terrestrial species 
; 0.090000 
, 0.312000 
would 0.084000 
. 0.514000 
Context Words: oil - rich countries 
) 0.276139 
of 0.109920 
can 0.139410 
to 0.474531 
Context Words: czechoslovakia and the former 
German 0.207547 
Yugoslavia 0.216981 
east 0.245283 
Soviet 0.330189 
Context Words: s all very well 
-- 0.229323 
and 0.402256 
that 0.161654 
saying 0.206767 
Context Words: iv v vi vii 
VII 0.183777 
total 0.474018 
VIII 0.258555 
. 0.083650 
Context Words: ultimate goal is the 
development 0.450599 
liberation 0.061377 
creation 0.416168 
transformation 0.071856 
Context Words: dwelling in the city 
and 0.164244 
or 0.132267 
, 0.485465 
. 0.218023 
Context Words: s what i think 
! 0.333333 
is 0.222222 
we 0.232323 
you 0.212121 
Context Words: dwelling house , and 
not 0.232558 
, 0.275194 
for 0.158915 
it 0.333333 
Context Words: oil painting , a 
technique 0.142857 
medium 0.157143 
copy 0.153571 
manual 0.546429 
Context Words: aquatic and terrestrial ecosystems 
( 0.074249 
is 0.034178 
, 0.262227 
. 0.629346 
Context Words: s what he said 
-- 0.063428 
to 0.140351 
, 0.734143 
he 0.062078 
Context Words: ldl - c and 
a 0.175385 
the 0.206154 
total 0.440000 
low 0.178462 
Context Words: ultimate goal , the 
ultimate 0.162698 
expression 0.341270 
complete 0.166667 
final 0.329365 
Context Words: ebb and flow to 
and 0.123746 
their 0.081940 
the 0.725753 
this 0.068562 
Context Words: s just the way 
things 0.134812 
we 0.058537 
it 0.737029 
you 0.069623 
Context Words: mg in 24 hours 
and 0.034146 
( 0.057143 
; 0.031359 
. 0.877352 
Context Words: small in size , 
rarely 0.146605 
there 0.276235 
has 0.418210 
from 0.158951 
Context Words: aesthetic values , and 
a 0.200599 
ethical 0.335329 
it 0.221557 
to 0.242515 
Context Words: d - c motor 
and 0.093846 
with 0.120000 
, 0.507692 
in 0.278462 
Context Words: aesthetics and philosophy of 
music 0.059126 
the 0.068123 
art 0.760925 
religion 0.111825 
Context Words: important to note that 
civil 0.321705 
regular 0.209302 
obtaining 0.228682 
reference 0.240310 
Context Words: mg daily for 2 
to 0.215215 
weeks 0.609610 
months 0.090090 
years 0.085085 
Context Words: b ) , " 
the 0.424107 
is 0.120536 
it 0.238839 
in 0.216518 
Context Words: s my turn to 
ask 0.361842 
go 0.213816 
take 0.220395 
have 0.203947 
Context Words: known as a " 
field 0.415094 
primary 0.279874 
d 0.166667 
moon 0.138365 
Context Words: gps ) , which 
was 0.199324 
is 0.469595 
uses 0.179054 
can 0.152027 
Context Words: opinion was , that 
this 0.334688 
there 0.521680 
every 0.060976 
pope 0.082656 
Context Words: md & a should 
provide 0.211864 
be 0.293785 
analyze 0.161017 
discuss 0.333333 
Context Words: p.m. on the 24th 
of 0.185321 
the 0.115596 
, 0.447706 
. 0.251376 
Context Words: urgency of the situation 
did 0.132116 
there 0.048335 
is 0.683136 
made 0.136412 
Context Words: eye could see , 
on 0.098200 
where 0.033824 
saw 0.835243 
across 0.032733 
Context Words: ignorant of the subject 
; 0.420000 
can 0.081667 
which 0.143333 
he 0.355000 
Context Words: p.m. on the 8th 
of 0.135185 
the 0.148148 
, 0.514815 
. 0.201852 
Context Words: ignorant of his own 
weakness 0.218223 
profession 0.276715 
fate 0.057368 
nature 0.447694 
Context Words: p.m. on the 6th 
of 0.263415 
the 0.102439 
, 0.424390 
. 0.209756 
Context Words: ct and mri findings 
of 0.128319 
in 0.261062 
are 0.171091 
. 0.439528 
Context Words: b and b is 
a 0.182886 
earlier 0.082215 
greater 0.459732 
in 0.275168 
Context Words: ct and / or 
ultrasound 0.034836 
magnetic 0.040984 
MRI 0.825137 
Mr 0.099044 
Context Words: b ) the time 
course 0.211640 
required 0.171958 
when 0.404762 
in 0.211640 
Context Words: ct and mr scans 
are 0.194268 
of 0.264331 
, 0.203822 
. 0.337580 
Context Words: p.m. and 4 p.m. 
and 0.066667 
on 0.189394 
, 0.386364 
to 0.357576 
Context Words: k = number of 
independent 0.316742 
parameters 0.203620 
groups 0.253394 
categories 0.226244 
Context Words: p.m. on a wednesday 
night 0.228426 
evening 0.223350 
, 0.274112 
. 0.274112 
Context Words: slope of the hill 
-- 0.411437 
has 0.203626 
so 0.213389 
, 0.171548 
Context Words: ms has been used 
to 0.523269 
as 0.059024 
for 0.295119 
in 0.122588 
Context Words: ct ) , which 
is 0.599532 
has 0.161593 
was 0.140515 
can 0.098361 
Context Words: jimmy carter , " 
state 0.229917 
fortune 0.149584 
the 0.432133 
in 0.188366 
Context Words: ct scan is normal 
and 0.138493 
or 0.112016 
, 0.313646 
. 0.435845 
Context Words: known as the ' 
true 0.220000 
official 0.334286 
liberal 0.160000 
reverse 0.285714 
Context Words: k - d tree 
( 0.149580 
, 0.630252 
for 0.122689 
to 0.097479 
Context Words: p.m. and did not 
leave 0.211806 
return 0.277778 
end 0.180556 
get 0.329861 
Context Words: pm and 4 to 
9 0.061472 
8 0.252814 
7 0.432035 
6 0.253680 
Context Words: important to have a 
design 0.247012 
college 0.187251 
steady 0.262948 
reference 0.302789 
Context Words: pm and 6 am 
) 0.108235 
and 0.131765 
, 0.115294 
. 0.644706 
Context Words: b - flat , 
not 0.063927 
with 0.082192 
is 0.208524 
e 0.645358 
Context Words: s what they are 
! 0.120150 
-- 0.102628 
, 0.392991 
. 0.384230 
Context Words: b ) , ( 
1 0.443642 
0 0.333815 
b 0.117052 
III 0.105491 
Context Words: oil in the world 
was 0.147583 
oil 0.145038 
markets 0.279898 
economy 0.427481 
Context Words: jimmy carter 's election 
to 0.192090 
as 0.220339 
, 0.212806 
in 0.374765 
Context Words: fcc ) , which 
regulates 0.434010 
is 0.195431 
has 0.170051 
was 0.200508 
Context Words: b ) , is 
not 0.381132 
as 0.211321 
greater 0.222642 
just 0.184906 
Context Words: m.d. clinical assistant professor 
department 0.119417 
of 0.566377 
university 0.026675 
, 0.287531 
Context Words: b ) ( a 
) 0.563457 
+ 0.106127 
- 0.101751 
/ 0.228665 
Context Words: m.d. pa. 1985 ) 
( 0.262136 
; 0.171521 
, 0.174757 
. 0.391586 
Context Words: further evidence for the 
relative 0.244382 
operation 0.196629 
assumption 0.401685 
direct 0.157303 
Context Words: oil and petroleum products 
during 0.144552 
accounted 0.070119 
was 0.097087 
in 0.688242 
Context Words: b ) would not 
apply 0.263655 
, 0.054622 
have 0.045168 
be 0.636555 
Context Words: psychology and social science 
; 0.137255 
, 0.287582 
is 0.241830 
in 0.333333 
Context Words: clear to us , 
both 0.113689 
who 0.285383 
from 0.484919 
our 0.116009 
Context Words: psychology as well as 
a 0.503965 
psychiatry 0.050220 
its 0.147137 
for 0.298678 
Context Words: department of state , 
33 0.101329 
Na 0.441860 
1972 0.292359 
center 0.164452 
Context Words: oil painting , and 
the 0.579082 
is 0.155612 
, 0.112245 
it 0.153061 
Context Words: b - b , 
and 0.784065 
c 0.108545 
b 0.057737 
are 0.049654 
Context Words: s as well as 
to 0.251825 
all 0.200730 
her 0.295620 
in 0.251825 
Context Words: b - 52 's 
had 0.299505 
are 0.368812 
flew 0.121287 
were 0.210396 
Context Words: oil in a large 
cast 0.055708 
bowl 0.175799 
pan 0.753881 
iron 0.014612 
Context Words: clear to me that 
past 0.006479 
whenever 0.006344 
we 0.795789 
no 0.191389 
Context Words: s in order to 
avoid 0.197479 
obtain 0.403361 
find 0.218487 
give 0.180672 
Context Words: f. skinner , " 
a 0.207965 
teaching 0.365044 
some 0.320796 
why 0.106195 
Context Words: s - i - 
r 0.065344 
b 0.173862 
e 0.102684 
n 0.658110 
Context Words: author of the ' 
romance 0.133987 
light 0.232026 
natural 0.454248 
birds 0.179739 
Context Words: oil - rich states 
were 0.135447 
are 0.282421 
have 0.400576 
like 0.181556 
Context Words: d - c component 
) 0.152263 
( 0.191358 
, 0.300412 
. 0.355967 
Context Words: oil can not be 
extracted 0.085575 
used 0.721271 
recovered 0.085575 
tolerated 0.107579 
Context Words: available evidence does not 
exclude 0.051485 
suggest 0.078218 
support 0.260396 
permit 0.609901 
Context Words: europe can not be 
underestimated 0.138107 
based 0.153453 
anything 0.271100 
achieved 0.437340 
Context Words: fbi or the cia 
or 0.202128 
, 0.264438 
? 0.077508 
. 0.455927 
Context Words: middle ages , and 
whether 0.051963 
one 0.151270 
from 0.270208 
no 0.526559 
Context Words: jim and i went 
down 0.086404 
to 0.720457 
over 0.097840 
back 0.095299 
Context Words: available to them and 
use 0.135011 
relevant 0.203661 
which 0.443936 
for 0.217391 
Context Words: p.m. on the 25th 
of 0.143836 
the 0.083904 
, 0.445205 
. 0.327055 
Context Words: b - cell function 
as 0.075843 
has 0.081461 
or 0.068820 
in 0.773876 
Context Words: jim and his mother 
to 0.158672 
had 0.173432 
, 0.402214 
. 0.265683 
Context Words: ms in possession of 
Mr. 0.120996 
the 0.482206 
Mrs. 0.225979 
author 0.170819 
Context Words: full - time , 
ordained 0.045221 
part 0.093525 
married 0.064748 
they 0.796506 
Context Words: b and a are 
given 0.104294 
the 0.674847 
related 0.085890 
two 0.134969 
Context Words: jim and i , 
alone 0.186131 
and 0.364964 
we 0.270073 
he 0.178832 
Context Words: eye can not be 
considered 0.175926 
enlarged 0.237654 
used 0.330247 
elevated 0.256173 
Context Words: p.m. on the 29th 
of 0.156463 
the 0.122449 
, 0.455782 
. 0.265306 
Context Words: kong in the early 
1980s 0.261468 
1990s 0.311927 
1950s 0.217125 
1970s 0.209480 
Context Words: available at the time 
this 0.597297 
to 0.219938 
by 0.008589 
they 0.174176 
Context Words: p.m. on the 30th 
of 0.155738 
the 0.106557 
, 0.536885 
. 0.200820 
Context Words: available to the family 
during 0.188854 
as 0.439628 
on 0.198142 
doctor 0.173375 
Context Words: b and d ) 
is 0.360902 
was 0.110276 
the 0.203008 
in 0.325815 
Context Words: full - time employment 
only 0.058113 
or 0.876295 
, 0.031070 
earned 0.034522 
Context Words: p.m. on the 4th 
of 0.357349 
the 0.175793 
August 0.178674 
. 0.288184 
Context Words: p.m. on a tuesday 
night 0.232283 
afternoon 0.177165 
, 0.263780 
. 0.326772 
Context Words: b - cell - 
specific 0.241618 
mediated 0.345665 
associated 0.330636 
t 0.082081 
Context Words: available from the manufacturer 
) 0.176471 
( 0.197861 
; 0.068182 
of 0.557487 
Context Words: jimmy shook his head 
and 0.095213 
in 0.048387 
, 0.096774 
. 0.759625 
Context Words: available to the individual 
will 0.269504 
on 0.248227 
worker 0.280142 
but 0.202128 
Context Words: ms - chap ) 
is 0.136476 
Microsoft 0.114144 
, 0.550868 
. 0.198511 
Context Words: available in this country 
on 0.160714 
is 0.441667 
since 0.095238 
at 0.302381 
Context Words: b ) , to 
increase 0.144737 
provide 0.549342 
reduce 0.167763 
achieve 0.138158 
Context Words: effect on the young 
and 0.238750 
artist 0.055000 
's 0.078750 
. 0.627500 
Context Words: p.m. in the summer 
and 0.187366 
months 0.116702 
, 0.451820 
. 0.244111 
Context Words: ignore it , but 
then 0.079978 
when 0.091948 
it 0.736670 
if 0.091404 
Context Words: b ) they are 
usually 0.191275 
all 0.446309 
too 0.157718 
less 0.204698 
Context Words: availability of the data 
or 0.080000 
in 0.161739 
at 0.042609 
. 0.715652 
Context Words: b - flat major 
Concerto 0.008704 
symphony 0.006822 
, 0.738414 
. 0.246060 
Context Words: ryan of new york 
and 0.152941 
city 0.123529 
, 0.561765 
. 0.161765 
Context Words: jim shook his head 
and 0.137397 
again 0.011491 
, 0.108918 
. 0.742193 
Context Words: pc or a mac 
) 0.099278 
OS 0.144404 
, 0.317690 
. 0.438628 
Context Words: ultimately proved fatal to 
the 0.578788 
his 0.115152 
him 0.234848 
its 0.071212 
Context Words: edition of his poems 
-- 0.182069 
( 0.677241 
" 0.062069 
of 0.078621 
Context Words: rate of growth of 
0 0.089194 
rats 0.262436 
employment 0.123499 
revenue 0.524871 
Context Words: p.m. on the 14th 
of 0.124726 
the 0.137856 
, 0.448578 
. 0.288840 
Context Words: b - d ) 
the 0.165808 
in 0.064882 
, 0.692070 
are 0.077240 
Context Words: d and a , 
and 0.203426 
the 0.411135 
are 0.087794 
which 0.297645 
Context Words: rate of change of 
core 0.041999 
wages 0.118030 
bone 0.033309 
each 0.806662 
Context Words: type of service , 
while 0.296429 
etc. 0.353571 
location 0.146429 
he 0.203571 
Context Words: aware of the potential 
psychological 0.114525 
military 0.128492 
causes 0.134078 
significance 0.622905 
Context Words: d be nothing left 
of 0.374233 
for 0.239264 
but 0.171779 
to 0.214724 
Context Words: f. j. , and 
L. 0.173288 
W. 0.707534 
Scott 0.067808 
v. 0.051370 
Context Words: d in divided doses 
( 0.133721 
; 0.299834 
every 0.401163 
, 0.165282 
Context Words: different from that of 
healthy 0.333671 
younger 0.525355 
corresponding 0.089249 
cancer 0.051724 
Context Words: type of data that 
was 0.329310 
needs 0.208621 
has 0.306897 
's 0.155172 
Context Words: jim opened the door 
and 0.466216 
of 0.108108 
, 0.198198 
. 0.227477 
Context Words: effect of making the 
entire 0.339964 
use 0.150090 
system 0.291139 
words 0.218807 
Context Words: iowa and new hampshire 
-- 0.146832 
and 0.401855 
with 0.097372 
are 0.353941 
Context Words: d ) , but 
these 0.161290 
this 0.425806 
, 0.311828 
which 0.101075 
Context Words: aware of his own 
lack 0.104444 
educational 0.088889 
good 0.388889 
ability 0.417778 
Context Words: d ) is not 
the 0.880573 
required 0.033439 
so 0.038217 
, 0.047771 
Context Words: ideas about how to 
read 0.064555 
respond 0.315469 
create 0.550548 
interact 0.069428 
Context Words: bp to the present 
) 0.122066 
, 0.300469 
day 0.129108 
. 0.448357 
Context Words: fbi agent , and 
a 0.238095 
i 0.152882 
the 0.280702 
he 0.328321 
Context Words: c there is a 
large 0.232143 
sudden 0.250000 
tendency 0.299107 
change 0.218750 
Context Words: jim and the other 
boys 0.290909 
men 0.272727 
children 0.204545 
two 0.231818 
Context Words: a - distance , 
" 0.331288 
or 0.138037 
but 0.205521 
which 0.325153 
Context Words: jim was going to 
ask 0.087234 
be 0.587234 
sail 0.182979 
do 0.142553 
Context Words: authority in the state 
department 0.429104 
gradually 0.220149 
? 0.179104 
were 0.171642 
Context Words: going on , and 
me 0.083172 
asked 0.719536 
pretty 0.085106 
evidently 0.112186 
Context Words: richard m. nixon , 
July 0.031662 
who 0.767370 
1968 0.023307 
by 0.177661 
Context Words: p.m. on the 17th 
of 0.159329 
the 0.088050 
, 0.471698 
. 0.280922 
Context Words: quality of life , 
provided 0.138004 
compared 0.295117 
thus 0.271762 
increasing 0.295117 
Context Words: give you a better 
account 0.737543 
piece 0.031866 
life 0.204519 
general 0.026072 
Context Words: parts of the body 
previously 0.066557 
; 0.182416 
develop 0.390304 
according 0.360723 
Context Words: type in order to 
meet 0.168000 
find 0.248000 
achieve 0.360000 
take 0.224000 
Context Words: fbi in new york 
and 0.124105 
city 0.310263 
, 0.284010 
. 0.281623 
Context Words: ii and , in 
a 0.090909 
the 0.485950 
fact 0.140496 
particular 0.282645 
Context Words: civil war between the 
classes 0.256757 
central 0.239865 
two 0.253378 
northern 0.250000 
Context Words: available to him and 
will 0.096286 
also 0.078404 
, 0.367263 
that 0.458047 
Context Words: united states have been 
sold 0.147687 
responsible 0.169039 
affected 0.574733 
. 0.108541 
Context Words: ryan shook his head 
again 0.024492 
as 0.031787 
at 0.023971 
. 0.919750 
Context Words: blood - brain barrier 
breaks 0.134351 
injury 0.293130 
well 0.462595 
drug 0.109924 
Context Words: available in order to 
apply 0.076389 
sustain 0.086806 
obtain 0.588542 
have 0.248264 
Context Words: aimed at reducing the 
barriers 0.127886 
dependency 0.081705 
costs 0.662522 
physical 0.127886 
Context Words: available information , it 
is 0.698285 
was 0.095391 
can 0.094855 
would 0.111468 
Context Words: king and his ministers 
-- 0.262000 
the 0.238000 
was 0.276000 
have 0.224000 
Context Words: b. in order to 
be 0.445652 
compare 0.181159 
make 0.166667 
show 0.206522 
Context Words: end of the year 
new 0.342360 
1939 0.454545 
let 0.100580 
up 0.102515 
Context Words: d - c motors 
with 0.077093 
are 0.515419 
can 0.058370 
. 0.349119 
Context Words: king of egypt , 
has 0.149123 
are 0.175439 
for 0.479532 
gave 0.195906 
Context Words: p.m. on the 15th 
of 0.115010 
the 0.142300 
, 0.499025 
. 0.243665 
Context Words: might be , the 
servants 0.178723 
manner 0.268085 
necessity 0.191489 
church 0.361702 
Context Words: effect can not be 
very 0.189451 
ignored 0.613563 
different 0.123789 
proven 0.073197 
Context Words: cities of the plain 
a 0.073059 
( 0.083714 
; 0.414003 
" 0.429224 
Context Words: d can not be 
separated 0.164706 
started 0.135294 
the 0.558824 
viewed 0.141176 
Context Words: h. thomas , the 
colonial 0.233898 
american 0.433898 
hero 0.138983 
southwestern 0.193220 
Context Words: committee of the party 
and 0.867330 
... 0.038972 
concerning 0.052239 
declared 0.041459 
Context Words: a - b is 
not 0.162252 
also 0.069536 
shown 0.099338 
the 0.668874 
Context Words: d - c machines 
and 0.257541 
, 0.232019 
are 0.269142 
. 0.241299 
Context Words: a - half pages 
of 0.599755 
to 0.152999 
long 0.121175 
in 0.126071 
Context Words: going to have to 
he 0.162866 
brief 0.156352 
swing 0.319218 
brush 0.361564 
Context Words: effects of the new 
religion 0.260417 
administration 0.190972 
deal 0.347222 
world 0.201389 
Context Words: p.m. to 4 a.m. 
and 0.086677 
the 0.128411 
; 0.097913 
, 0.686998 
Context Words: the other is the 
psychological 0.155405 
work 0.554054 
explicit 0.090090 
reference 0.200450 
Context Words: d & c ) 
: 0.072360 
was 0.028764 
, 0.848989 
for 0.049888 
Context Words: owned by the state 
to 0.163569 
itself 0.228625 
oil 0.085502 
were 0.522305 
Context Words: p.m. on the second 
and 0.105556 
Tuesday 0.111111 
day 0.618519 
business 0.164815 
Context Words: a - month , 
and 0.575856 
or 0.272431 
two 0.078303 
in 0.073409 
Context Words: pc to the internet 
using 0.141243 
through 0.120527 
, 0.286252 
. 0.451977 
Context Words: the first is an 
excerpt 0.313589 
estimate 0.232288 
examination 0.385598 
author 0.068525 
Context Words: b. e. , and 
Roth 0.288265 
fine 0.221939 
Williams 0.237245 
others 0.252551 
Context Words: a - million dollars 
a 0.104956 
to 0.188047 
, 0.236152 
. 0.470845 
Context Words: b. j. , & 
Jones 0.316527 
Smith 0.201681 
Klaus 0.123249 
Cooper 0.358543 
Context Words: economic and the political 
) 0.093254 
sphere 0.569444 
are 0.251984 
institutions 0.085317 
Context Words: b. m. , & 
Bradley 0.507128 
forehand 0.185336 
beach 0.140530 
rock 0.167006 
Context Words: a - bomb survivors 
and 0.213992 
, 0.667695 
have 0.056584 
are 0.061728 
Context Words: p.m. as soon as 
i 0.179747 
the 0.511392 
we 0.200000 
he 0.108861 
Context Words: a - 4 , 
and 0.796371 
5 0.055444 
it 0.066532 
for 0.081653 
Context Words: united states , p. 
122 0.268868 
51 0.337264 
72 0.297170 
401 0.096698 
Context Words: r and d , 
and 0.798514 
the 0.052023 
which 0.114781 
for 0.034682 
Context Words: united states , in 
: 0.070505 
providing 0.199765 
negotiating 0.108108 
recent 0.621622 
Context Words: economic and political forces 
as 0.208989 
had 0.134831 
is 0.211236 
were 0.444944 
Context Words: blood pressure , and 
make 0.098820 
sometimes 0.386431 
reduce 0.426254 
vice 0.088496 
Context Words: r and c , 
respectively 0.529680 
we 0.130137 
or 0.173516 
which 0.166667 
Context Words: end of the war 
imminent 0.003347 
of 0.979733 
seems 0.012271 
hundreds 0.004648 
Context Words: number of years , 
using 0.074166 
gradually 0.027377 
ranging 0.026879 
which 0.871578 
Context Words: very large number of 
expressions 0.087500 
careful 0.096875 
topics 0.131250 
others 0.684375 
Context Words: europe as well , 
and 0.820928 
we 0.053937 
since 0.052859 
were 0.072276 
Context Words: middle - class women 
about 0.292276 
worked 0.478079 
all 0.121086 
under 0.108559 
Context Words: away from the people 
we 0.193227 
themselves 0.095618 
by 0.627490 
. 0.083665 
Context Words: absence of a specific 
federal 0.181543 
definition 0.192133 
law 0.350983 
legal 0.275340 
Context Words: economic and social affairs 
and 0.149303 
department 0.073289 
at 0.020896 
of 0.756511 
Context Words: economic and social welfare 
as 0.127404 
throughout 0.269231 
goals 0.201923 
programs 0.401442 
Context Words: a - liner , 
the 0.105012 
" 0.424821 
or 0.315036 
one 0.155131 
Context Words: a - year to 
live 0.143993 
his 0.111307 
the 0.698763 
maintain 0.045936 
Context Words: a - c input 
and 0.195531 
is 0.217877 
, 0.187151 
. 0.399441 
Context Words: authority in order to 
control 0.153912 
maintain 0.474490 
achieve 0.335884 
operate 0.035714 
Context Words: economic and political conditions 
during 0.264591 
; 0.460441 
had 0.208820 
or 0.066148 
Context Words: h. a. , & 
Bailey 0.295019 
Allen 0.329502 
Epstein 0.191571 
morgan 0.183908 
Context Words: economic and social life 
throughout 0.084000 
during 0.133333 
" 0.422667 
on 0.360000 
Context Words: h. martin , and 
R. 0.220994 
E. 0.232044 
P. 0.303867 
C. 0.243094 
Context Words: r are the same 
as 0.423841 
, 0.162252 
for 0.274834 
. 0.139073 
Context Words: h. j. , & 
Feldman 0.103691 
Vaughan 0.087873 
Wallace 0.616872 
Beatty 0.191564 
Context Words: r ) , where 
a 0.066225 
x 0.059603 
r 0.830653 
l 0.043519 
Context Words: authority of the courts 
is 0.572792 
over 0.164678 
by 0.128878 
or 0.133652 
Context Words: p - wave velocity 
and 0.275604 
of 0.483516 
measurements 0.046593 
structure 0.194286 
Context Words: girls and young women 
( 0.039228 
must 0.041038 
to 0.840676 
do 0.079059 
Context Words: r & d department 
has 0.490566 
: 0.080189 
which 0.094340 
of 0.334906 
Context Words: authority to make decisions 
related 0.052383 
; 0.071682 
is 0.345018 
for 0.530918 
Context Words: economic research service , 
July 0.014273 
Washington 0.178686 
U.S. 0.784825 
statistical 0.022215 
Context Words: effects of changes in 
body 0.146096 
federal 0.158690 
domestic 0.471033 
temperature 0.224181 
Context Words: r & d : 
a 0.380478 
( 0.282869 
some 0.161355 
an 0.175299 
Context Words: effects of this are 
strikingly 0.308880 
only 0.173745 
obvious 0.270270 
difficult 0.247104 
Context Words: p - value is 
( 0.189091 
twice 0.418182 
just 0.196364 
to 0.196364 
Context Words: r at time t 
and 0.098990 
is 0.286869 
= 0.092929 
, 0.521212 
Context Words: r & d personnel 
employed 0.173815 
: 0.135440 
by 0.415350 
in 0.275395 
Context Words: effects of the war 
) 0.072464 
upon 0.291173 
have 0.561265 
in 0.075099 
Context Words: p and p , 
and 0.068776 
etc 0.497937 
the 0.239340 
respectively 0.193948 
Context Words: a - i - 
a 0.235988 
i 0.235988 
m 0.253687 
t 0.274336 
Context Words: order to make the 
interview 0.107321 
security 0.043261 
land 0.708819 
offer 0.140599 
Context Words: effects of self - 
absorption 0.564417 
regulated 0.110429 
awareness 0.200409 
disclosure 0.124744 
Context Words: is evident that the 
wife 0.275510 
sixth 0.166667 
stockholders 0.173469 
faculty 0.384354 
Context Words: a ) , and 
a 0.194858 
high 0.117727 
the 0.623816 
abdominal 0.063599 
Context Words: i - " " 
the 0.304075 
stop 0.115987 
we 0.392894 
he 0.187043 
Context Words: economic and social matters 
the 0.029963 
, 0.883063 
but 0.019143 
are 0.067832 
Context Words: away from the town 
and 0.719287 
; 0.124443 
by 0.051878 
for 0.104392 
Context Words: r and thickness dr 
( 0.075243 
is 0.252427 
, 0.336165 
. 0.336165 
Context Words: away from him , 
then 0.747408 
cutting 0.012488 
from 0.224788 
first 0.015316 
Context Words: a - 8 ) 
and 0.610738 
to 0.134228 
; 0.129754 
are 0.125280 
Context Words: is assumed that the 
radio 0.046290 
aircraft 0.112238 
main 0.588459 
group 0.253012 
Context Words: ohio and the mississippi 
meet 0.102871 
valleys 0.358852 
? 0.126794 
were 0.411483 
Context Words: quarter of a million 
titles 0.034621 
just 0.027963 
for 0.805593 
pupils 0.131824 
Context Words: ohio river , and 
also 0.358974 
about 0.175214 
so 0.230769 
it 0.235043 
Context Words: is believed that the 
girl 0.073554 
center 0.057025 
soul 0.756198 
longer 0.113223 
Context Words: r with respect to 
a 0.241087 
s 0.101868 
the 0.555178 
time 0.101868 
Context Words: c ) have been 
developed 0.105769 
met 0.492788 
described 0.163462 
found 0.237981 
Context Words: a - 6 ) 
to 0.028379 
the 0.017550 
in 0.022778 
. 0.931292 
Context Words: i am sure , 
James 0.227154 
enable 0.274151 
aunt 0.240209 
took 0.258486 
Context Words: a - s - 
i 0.063625 
p 0.405762 
e 0.458583 
, 0.072029 
Context Words: c and a , 
c 0.277592 
b 0.307692 
d 0.257525 
it 0.157191 
Context Words: economic and social objectives 
: 0.214286 
by 0.276786 
' 0.272321 
can 0.236607 
Context Words: c and c , 
and 0.098497 
p 0.611018 
the 0.075125 
d 0.215359 
Context Words: economic and political interests 
on 0.153763 
" 0.092473 
with 0.220430 
were 0.533333 
Context Words: c ) that the 
accused 0.300926 
other 0.291667 
said 0.212963 
presence 0.194444 
Context Words: a - d converter 
and 0.234987 
is 0.258486 
with 0.079634 
, 0.426893 
Context Words: i argue that the 
creation 0.364017 
character 0.188285 
effects 0.251046 
expansion 0.196653 
Context Words: a - c output 
is 0.298969 
from 0.182131 
, 0.278351 
signal 0.240550 
Context Words: c ) , we 
also 0.096429 
add 0.083929 
are 0.471429 
can 0.348214 
Context Words: economic and social system 
) 0.161804 
had 0.249337 
by 0.411141 
should 0.177719 
Context Words: bp and heart rate 
are 0.142494 
( 0.305344 
, 0.208651 
. 0.343511 
Context Words: economic and political institutions 
with 0.021656 
was 0.021656 
, 0.937665 
would 0.019023 
Context Words: i had seen the 
surge 0.098925 
program 0.086022 
angel 0.103226 
people 0.711828 
Context Words: economic and social policy 
and 0.431489 
of 0.403491 
or 0.019763 
issues 0.145257 
Context Words: if it is an 
even 0.273723 
exception 0.319343 
inevitable 0.191606 
original 0.215328 
Context Words: for instance , in 
Calcutta 0.144928 
Bolivia 0.096618 
modern 0.149758 
comparison 0.608696 
Context Words: hundred and fifty thousand 
dollars 0.587243 
now 0.037390 
slaves 0.334311 
foreigners 0.041056 
Context Words: away from the city 
a 0.276158 
is 0.404803 
it 0.089194 
they 0.229846 
Context Words: europe and the american 
west 0.118644 
colonies 0.123267 
revolution 0.294299 
continent 0.463790 
Context Words: r = 0 and 
the 0.255682 
r 0.437500 
we 0.116477 
for 0.190341 
Context Words: c - sharp minor 
) 0.292596 
and 0.233720 
chord 0.043711 
. 0.429973 
Context Words: r & d efforts 
with 0.496868 
has 0.225470 
from 0.173278 
across 0.104384 
Context Words: c - span , 
the 0.630926 
" 0.220090 
with 0.050790 
which 0.098194 
Context Words: a wide range of 
motion 0.123123 
pottery 0.132132 
companies 0.414414 
reactions 0.330330 
Context Words: rio de janeiro , 
this 0.606343 
till 0.074627 
became 0.188433 
led 0.130597 
Context Words: r - i - 
a 0.334083 
i 0.104612 
s 0.493813 
b 0.067492 
Context Words: essential difference between the 
last 0.199170 
primitive 0.174274 
modern 0.452282 
experiences 0.174274 
Context Words: r & b and 
dance 0.369775 
Motown 0.180064 
top 0.196141 
rock 0.254019 
Context Words: out from under the 
bushes 0.144963 
bathroom 0.235872 
top 0.506143 
motor 0.113022 
Context Words: p and s waves 
on 0.045161 
is 0.151254 
that 0.083871 
. 0.719713 
Context Words: experience has shown that 
almost 0.165753 
few 0.278082 
students 0.484932 
governments 0.071233 
Context Words: r & d investments 
) 0.084481 
is 0.202020 
are 0.665748 
in 0.047750 
Context Words: for example , that 
enable 0.203540 
measured 0.138643 
breast 0.200590 
n 0.457227 
Context Words: p = density of 
water 0.173828 
the 0.574219 
fluid 0.119141 
air 0.132812 
Context Words: 7 ) , we 
use 0.280840 
derive 0.162730 
know 0.349081 
conclude 0.207349 
Context Words: far as they are 
consumed 0.137226 
parts 0.548905 
authentic 0.150365 
built 0.163504 
Context Words: 7 ) , is 
( 0.157343 
shown 0.468531 
often 0.227273 
then 0.146853 
Context Words: p with respect to 
a 0.766409 
O. 0.058880 
these 0.064672 
x 0.110039 
Context Words: 6 and 7 , 
1923 0.147126 
etc. 0.193103 
who 0.278161 
show 0.381609 
Context Words: knew what he was 
undertaking 0.054013 
after 0.832408 
singing 0.071681 
here 0.041898 
Context Words: bbc radio 4 's 
the 0.118936 
woman 0.101721 
today 0.668232 
' 0.111111 
Context Words: p = 0.02 ) 
with 0.017379 
, 0.135892 
for 0.012551 
. 0.834178 
Context Words: i could not have 
accepted 0.595238 
crossed 0.081081 
performed 0.280566 
researched 0.043115 
Context Words: korean war , which 
led 0.096815 
had 0.634395 
took 0.053503 
broke 0.215287 
Context Words: oscar wilde ' s 
life 0.200772 
story 0.227799 
' 0.386100 
mother 0.185328 
Context Words: p - i - 
c 0.125493 
e 0.549329 
d 0.211523 
t 0.113654 
Context Words: gdp ) over the 
past 0.308333 
last 0.245833 
period 0.241667 
next 0.204167 
Context Words: after two years of 
implementation 0.433234 
university 0.219585 
experiments 0.216617 
protracted 0.130564 
Context Words: i know , " 
Samantha 0.206597 
penny 0.175347 
Mandy 0.267361 
one 0.350694 
Context Words: cycle of the seasons 
which 0.326599 
but 0.343434 
? 0.171717 
were 0.158249 
Context Words: i never saw him 
carry 0.229167 
idle 0.142361 
ride 0.128472 
once 0.500000 
Context Words: i can not go 
chasing 0.217476 
or 0.122330 
fast 0.378641 
under 0.281553 
Context Words: gdp of the country 
is 0.106383 
in 0.106383 
, 0.215130 
. 0.572104 
Context Words: away from the traditional 
ways 0.147863 
position 0.092308 
emphasis 0.364103 
concept 0.395726 
Context Words: i know that i 
feel 0.649504 
hit 0.040323 
look 0.191067 
once 0.119107 
Context Words: i - i - 
de 0.217213 
e 0.372951 
f 0.213115 
. 0.196721 
Context Words: gdp in the 1970s 
and 0.263027 
to 0.359801 
, 0.225806 
. 0.151365 
Context Words: is it possible to 
pursue 0.037037 
see 0.933764 
repeat 0.008818 
so 0.020380 
Context Words: gdp in the late 
1980s 0.397454 
1990s 0.236209 
1960s 0.090523 
1970s 0.275813 
Context Words: economy of time and 
strength 0.403561 
attention 0.287834 
mental 0.166172 
costs 0.142433 
Context Words: oscar wilde , who 
said 0.284830 
, 0.419505 
wrote 0.156347 
in 0.139319 
Context Words: economy in order to 
promote 0.318584 
" 0.090708 
ensure 0.366150 
secure 0.224558 
Context Words: not surprisingly , the 
conversation 0.234114 
reforms 0.210702 
poorest 0.210702 
choice 0.344482 
Context Words: turned back , and 
read 0.103659 
as 0.646341 
caught 0.091463 
seemed 0.158537 
Context Words: gdp ) for the 
united 0.271186 
year 0.169492 
period 0.372881 
first 0.186441 
Context Words: c as well as 
of 0.052632 
the 0.798246 
for 0.116734 
an 0.032389 
Context Words: time to time the 
owner 0.208716 
prime 0.252294 
noise 0.254587 
want 0.284404 
Context Words: c and d in 
a 0.618257 
this 0.093361 
which 0.168050 
each 0.120332 
Context Words: oscar wilde 's the 
portrait 0.228571 
soul 0.318367 
ballad 0.340816 
selfish 0.112245 
Context Words: i am indebted to 
Phillip 0.044145 
Joseph 0.540773 
scores 0.060086 
Henry 0.354997 
Context Words: gdp - bound state 
and 0.163708 
( 0.171598 
, 0.228797 
. 0.435897 
Context Words: turned it over to 
a 0.450379 
them 0.093468 
his 0.435944 
others 0.020209 
Context Words: i do not think 
personal 0.103880 
energy 0.075094 
computers 0.082603 
half 0.738423 
Context Words: i should not be 
astonished 0.834746 
smoking 0.077427 
sharing 0.020031 
my 0.067797 
Context Words: over and over again 
this 0.027230 
seen 0.009022 
there 0.010644 
, 0.953104 
Context Words: europe by way of 
Cape 0.369963 
Panama 0.241758 
Montreal 0.153846 
Greece 0.234432 
Context Words: 9 ) , the 
potential 0.180000 
three 0.216667 
plan 0.300000 
subject 0.303333 
Context Words: km from the epicenter 
) 0.102167 
of 0.218782 
, 0.312693 
. 0.366357 
Context Words: lying in the sun 
-- 0.486405 
on 0.145015 
is 0.244713 
when 0.123867 
Context Words: lying on your back 
is 0.022738 
, 0.591633 
? 0.027058 
. 0.358572 
Context Words: if one does not 
fully 0.296571 
make 0.544022 
strive 0.074143 
define 0.085264 
Context Words: cup of tea and 
plate 0.167598 
there 0.083799 
eat 0.396648 
they 0.351955 
Context Words: europe and india , 
of 0.207171 
was 0.175299 
it 0.334661 
to 0.282869 
Context Words: gdp and its components 
are 0.282258 
in 0.102823 
, 0.360887 
. 0.254032 
Context Words: i do not believe 
Rachel 0.194757 
Florence 0.153558 
like 0.490637 
English 0.161049 
Context Words: 7 ) , which 
says 0.030372 
are 0.654578 
provides 0.233454 
includes 0.081596 
Context Words: nine days after the 
battle 0.594059 
wedding 0.090099 
accident 0.250495 
declaration 0.065347 
Context Words: 7 and 8 ) 
does 0.141892 
where 0.216216 
are 0.371622 
would 0.270270 
Context Words: lying in the open 
on 0.103793 
air 0.512118 
under 0.036354 
. 0.347734 
Context Words: hundred of the most 
perfect 0.169492 
disaffected 0.199153 
approved 0.258475 
commonly 0.372881 
Context Words: lying in the range 
( 0.232358 
between 0.445783 
10 0.072289 
0 0.249570 
Context Words: error of his ways 
( 0.016844 
with 0.007676 
, 0.927186 
? 0.048294 
Context Words: lying at anchor , 
close 0.188623 
as 0.272455 
is 0.137725 
but 0.401198 
Context Words: 7 a.m. , and 
was 0.292063 
the 0.260317 
from 0.149206 
we 0.298413 
Context Words: i find that the 
action 0.232609 
range 0.097826 
three 0.445652 
British 0.223913 
Context Words: she had begun to 
sell 0.098086 
try 0.191388 
recover 0.107656 
fall 0.602871 
Context Words: if you did not 
and 0.382353 
fly 0.313725 
supply 0.163399 
. 0.140523 
Context Words: lying in the river 
; 0.599327 
in 0.095960 
bed 0.178451 
between 0.126263 
Context Words: idea of the whole 
work 0.513793 
sentence 0.116092 
? 0.090805 
passage 0.279310 
Context Words: time to time to 
account 0.532558 
retire 0.052326 
return 0.304651 
notice 0.110465 
Context Words: if there exists a 
total 0.234339 
" 0.238979 
string 0.266821 
stable 0.259861 
Context Words: gdp has been declining 
over 0.234637 
since 0.268156 
, 0.251397 
. 0.245810 
Context Words: lying on a sofa 
on 0.022476 
with 0.193143 
by 0.066286 
in 0.718095 
Context Words: gdp ) , which 
was 0.108434 
is 0.701807 
measures 0.131526 
had 0.058233 
Context Words: if there 's a 
paper 0.209821 
future 0.232143 
trap 0.178571 
kid 0.379464 
Context Words: i was the only 
baby 0.064599 
living 0.745478 
servant 0.085271 
coloured 0.104651 
Context Words: so great is the 
importance 0.237309 
disparity 0.095413 
magnitude 0.024465 
demand 0.642813 
Context Words: gdp per capita as 
a 0.553687 
the 0.209573 
well 0.106080 
an 0.130660 
Context Words: i 'm not a 
failure 0.629459 
goddess 0.136939 
football 0.180667 
back 0.052934 
Context Words: i was the first 
! 0.147541 
i 0.084016 
speaker 0.577869 
friend 0.190574 
Context Words: center of gravity , 
-- 0.138272 
1 0.123457 
by 0.518519 
G. 0.219753 
Context Words: over in order to 
go 0.191667 
hear 0.161111 
look 0.111111 
have 0.536111 
Context Words: if necessary , the 
baby 0.224390 
better 0.224390 
apparatus 0.234146 
re 0.317073 
Context Words: lying at the wharf 
on 0.090909 
; 0.287190 
with 0.117769 
at 0.504132 
Context Words: if god does not 
provide 0.205776 
heal 0.148014 
call 0.292419 
change 0.353791 
Context Words: lying in the dust 
! 0.129602 
with 0.194404 
at 0.378498 
before 0.297496 
Context Words: odds and ends " 
and 0.266393 
to 0.286885 
, 0.233607 
which 0.213115 
Context Words: if you have to 
write 0.703247 
share 0.190260 
hang 0.072727 
figure 0.033766 
Context Words: odds of making a 
sale 0.230769 
good 0.369231 
correct 0.207692 
mistake 0.192308 
Context Words: if you have any 
suggestions 0.799739 
preference 0.040444 
? 0.128506 
general 0.031311 
Context Words: odds and ends that 
may 0.173832 
might 0.255140 
can 0.171963 
he 0.399065 
Context Words: if you decide to 
re 0.150502 
fish 0.160535 
book 0.170569 
check 0.518395 
Context Words: so it is not 
always 0.412485 
inconceivable 0.086291 
true 0.442472 
presented 0.058752 
Context Words: if you try to 
locate 0.099788 
grab 0.220807 
stand 0.377919 
introduce 0.301486 
Context Words: odds with the dominant 
society 0.111460 
culture 0.726845 
trends 0.087912 
social 0.073783 
Context Words: europe and asia are 
of 0.106280 
divided 0.125604 
now 0.202899 
in 0.565217 
Context Words: odds in your favor 
when 0.027621 
are 0.032737 
for 0.026598 
. 0.913043 
Context Words: lying on his side 
the 0.050973 
near 0.052827 
, 0.751622 
for 0.144578 
Context Words: europe in the years 
leading 0.175806 
that 0.227419 
to 0.485484 
prior 0.111290 
Context Words: lying on the table 
-- 0.733638 
so 0.079148 
can 0.068493 
he 0.118721 
Context Words: junior high school , 
only 0.194118 
he 0.413725 
Kansas 0.217647 
each 0.174510 
Context Words: idea can not be 
better 0.103448 
made 0.355603 
derived 0.170259 
carried 0.370690 
Context Words: odds with itself , 
a 0.222917 
and 0.468750 
the 0.200000 
in 0.108333 
Context Words: lying on the side 
( 0.162257 
where 0.114638 
to 0.171076 
opposite 0.552028 
Context Words: either of them , 
were 0.275582 
either 0.076611 
jointly 0.016513 
it 0.631294 
Context Words: lying on a table 
with 0.741993 
covered 0.104982 
when 0.071174 
of 0.081851 
Context Words: lloyd wright ' s 
home 0.200000 
work 0.300000 
design 0.303704 
architecture 0.196296 
Context Words: cycle of poverty and 
social 0.206687 
violence 0.373860 
its 0.179331 
low 0.240122 
Context Words: b.c. ) , he 
found 0.082746 
is 0.146127 
had 0.153169 
was 0.617958 
Context Words: lying on the grass 
and 0.625120 
close 0.064238 
as 0.042665 
on 0.267977 
Context Words: kg in body weight 
) 0.158209 
and 0.155224 
, 0.328358 
. 0.358209 
Context Words: km from the planet 
and 0.103774 
's 0.405660 
, 0.146226 
. 0.344340 
Context Words: 0 = 0 , 
and 0.726655 
we 0.131460 
so 0.089755 
in 0.052131 
Context Words: u - l - 
a 0.175227 
e 0.148036 
l 0.438066 
t 0.238671 
Context Words: duke of york 's 
) 0.606440 
elder 0.118068 
translation 0.107335 
island 0.168157 
Context Words: especially with respect to 
control 0.323077 
calcium 0.126154 
this 0.409231 
understanding 0.141538 
Context Words: education and training programs 
) 0.081717 
; 0.465374 
designed 0.174515 
is 0.278393 
Context Words: odds with his own 
party 0.591781 
gravity 0.123288 
family 0.117808 
government 0.167123 
Context Words: 0 my soul , 
and 0.165493 
with 0.091549 
come 0.264085 
for 0.478873 
Context Words: if necessary , to 
inform 0.205514 
wash 0.110276 
attain 0.578947 
recall 0.105263 
Context Words: 0 50 100 150 
1 0.070872 
0 0.821403 
km 0.046775 
time 0.060950 
Context Words: i 'm not even 
officially 0.137500 
convinced 0.407500 
fit 0.190000 
seeing 0.265000 
Context Words: 0 20 0 0 
19 0.129353 
00 0.233831 
2 0.543947 
13 0.092869 
Context Words: techniques are used to 
capture 0.170599 
probe 0.123412 
check 0.170599 
prevent 0.535390 
Context Words: 0 2 0 0 
i 0.283554 
total 0.423440 
other 0.120983 
50 0.172023 
Context Words: odds with those of 
his 0.660033 
some 0.067993 
its 0.101161 
her 0.170813 
Context Words: czar and his family 
were 0.347689 
had 0.101891 
, 0.347689 
. 0.202731 
Context Words: either side , and 
down 0.424242 
stopping 0.155303 
laid 0.178030 
little 0.242424 
Context Words: ukraine and the oil 
fields 0.228013 
- 0.179153 
wells 0.162866 
of 0.429967 
Context Words: u - boats to 
be 0.339520 
attack 0.293117 
operate 0.230472 
their 0.136891 
Context Words: since it is not 
open 0.098958 
concerned 0.336806 
my 0.537616 
according 0.026620 
Context Words: 0 30 60 90 
0 0.536127 
angle 0.158960 
figure 0.141618 
time 0.163295 
Context Words: 60 days after the 
commission 0.148438 
issue 0.317708 
publication 0.395833 
circulation 0.138021 
Context Words: education should not be 
limited 0.581373 
neglected 0.288805 
free 0.037629 
divorced 0.092192 
Context Words: czar and the kaiser 
and 0.242915 
, 0.319838 
would 0.259109 
. 0.178138 
Context Words: education as well as 
a 0.247177 
provide 0.097867 
training 0.577164 
continuing 0.077792 
Context Words: how it is that 
individuals 0.607664 
teachers 0.078467 
members 0.211679 
English 0.102190 
Context Words: how to deal with 
post 0.178490 
unwanted 0.260870 
cross 0.160183 
reality 0.400458 
Context Words: fm in new york 
and 0.134146 
city 0.262195 
, 0.280488 
. 0.323171 
Context Words: dying of thirst and 
all 0.172549 
heat 0.313725 
exhaustion 0.321569 
exposure 0.192157 
Context Words: b.c. ) , an 
early 0.389344 
ancient 0.233607 
important 0.192623 
outstanding 0.184426 
Context Words: since there is no 
( 0.054422 
" 0.786848 
economic 0.091270 
new 0.067460 
Context Words: ozone layer that protects 
earth 0.066667 
life 0.112727 
the 0.424242 
us 0.396364 
Context Words: km from the earth 
and 0.068932 
's 0.457282 
, 0.173786 
. 0.300000 
Context Words: avenues of trees , 
and 0.835013 
is 0.032746 
with 0.105164 
or 0.027078 
Context Words: fm ) , and 
phase 0.578097 
the 0.240575 
pulse 0.075404 
if 0.105925 
Context Words: fundamental difference between the 
German 0.250554 
culture 0.088692 
economic 0.263858 
' 0.396896 
Context Words: ss - 4 to 
apply 0.271586 
the 0.365777 
establish 0.251177 
obtain 0.111460 
Context Words: km in the west 
and 0.266917 
to 0.281955 
, 0.199248 
. 0.251880 
Context Words: u - boats had 
sunk 0.792265 
had 0.049724 
, 0.090608 
attacked 0.067403 
Context Words: ozone layer , but 
also 0.157895 
the 0.266667 
it 0.277193 
they 0.298246 
Context Words: u - pa ) 
and 0.251192 
is 0.074722 
, 0.314785 
. 0.359300 
Context Words: km ) , where 
a 0.103383 
the 0.661654 
there 0.116541 
you 0.118421 
Context Words: ukraine as well as 
a 0.090211 
the 0.391555 
other 0.094050 
in 0.424184 
Context Words: ozone hole over the 
Antarctic 0.620032 
last 0.096979 
Arctic 0.093800 
south 0.189189 
Context Words: ss - 4 ) 
and 0.061358 
: 0.129243 
, 0.505222 
. 0.304178 
Context Words: b.c. ) , for 
instance 0.199860 
the 0.110799 
example 0.630435 
whom 0.058906 
Context Words: ss - 20s and 
SS 0.116216 
the 0.497297 
other 0.194595 
backfire 0.191892 
Context Words: b.c. it is not 
known 0.479365 
certain 0.139683 
clear 0.196825 
possible 0.184127 
Context Words: km from the river 
mouth 0.670659 
's 0.074850 
, 0.092814 
. 0.161677 
Context Words: km from the center 
) 0.022051 
of 0.818082 
, 0.057699 
. 0.102168 
Context Words: bc and the first 
half 0.132137 
millennium 0.075041 
centuries 0.078303 
century 0.714519 
Context Words: b.c. at that time 
a 0.133333 
the 0.677193 
it 0.114035 
they 0.075439 
Context Words: o. e. , and 
D. 0.194719 
L. 0.168317 
is 0.359736 
William 0.277228 
Context Words: b.c. ) , that 
we 0.096539 
of 0.094718 
is 0.364299 
the 0.444444 
Context Words: czar ivan the terrible 
and 0.093407 
( 0.106227 
, 0.415751 
. 0.384615 
Context Words: glad to have a 
task 0.147910 
father 0.199357 
guide 0.231511 
child 0.421222 
Context Words: km in the east 
and 0.117021 
to 0.161702 
- 0.482979 
. 0.238298 
Context Words: glad to see the 
zeal 0.076433 
same 0.385350 
French 0.369427 
son 0.168790 
Context Words: kg = 1000 g 
) 0.317757 
1 0.271028 
= 0.210280 
, 0.200935 
Context Words: lloyd - george , 
and 0.315789 
then 0.059942 
the 0.346491 
who 0.277778 
Context Words: km of the river 
course 0.254042 
mouth 0.256351 
, 0.193995 
. 0.295612 
Context Words: l do not consider 
the 0.145833 
myself 0.309028 
it 0.295139 
that 0.250000 
Context Words: omission of a word 
that 0.106750 
in 0.288854 
which 0.094192 
. 0.510204 
Context Words: mw of electric power 
and 0.098684 
from 0.100877 
, 0.243421 
. 0.557018 
Context Words: b.c. ) , 1 
1 0.189394 
and 0.333333 
the 0.189394 
, 0.287879 
Context Words: b.c. ) : " 
and 0.138983 
the 0.484746 
in 0.203390 
if 0.172881 
Context Words: b.c. ) , to 
be 0.100719 
the 0.497842 
which 0.099281 
whom 0.302158 
Context Words: b.c. ) , when 
a 0.083281 
the 0.741325 
it 0.111672 
they 0.063722 
Context Words: ozone and sulfur dioxide 
on 0.263736 
in 0.105769 
, 0.189560 
. 0.440934 
Context Words: b.c. ) , where 
we 0.095672 
it 0.284738 
they 0.173121 
he 0.446469 
Context Words: kg per capita per 
annum 0.186742 
year 0.610348 
day 0.124495 
month 0.078416 
Context Words: l was looking for 
a 0.296371 
the 0.084677 
, 0.189516 
. 0.429435 
Context Words: km ) a day 
and 0.067187 
in 0.070312 
, 0.310937 
. 0.551562 
Context Words: kramer vs. kramer , 
and 0.341912 
in 0.198529 
1979 0.279412 
Dustin 0.180147 
Context Words: km of the enzyme 
is 0.083926 
, 0.089616 
for 0.667141 
. 0.159317 
Context Words: iron and steel company 
with 0.033424 
at 0.184699 
which 0.038376 
. 0.743501 
Context Words: km of the crust 
and 0.091977 
is 0.099804 
, 0.305284 
. 0.502935 
Context Words: l just did not 
feel 0.165138 
know 0.327217 
have 0.159021 
want 0.348624 
Context Words: km of the mantle 
( 0.128931 
is 0.127358 
, 0.331761 
. 0.411950 
Context Words: l can not think 
of 0.649438 
about 0.121348 
why 0.114607 
that 0.114607 
Context Words: b.c. ) , or 
a 0.183051 
of 0.172881 
the 0.474576 
to 0.169492 
Context Words: kg ) , the 
amount 0.228261 
animals 0.228261 
average 0.282609 
second 0.260870 
Context Words: b.c. as the date 
of 0.849798 
when 0.046216 
for 0.080878 
. 0.023108 
Context Words: l can not take 
this 0.191375 
the 0.223720 
any 0.150943 
it 0.433962 
Context Words: b.c. ) , of 
a 0.117066 
whose 0.125529 
the 0.476728 
which 0.280677 
Context Words: l could see that 
the 0.301587 
she 0.206349 
it 0.165079 
he 0.326984 
Context Words: b.c. and the first 
millennium 0.038886 
centuries 0.068485 
two 0.098665 
century 0.793964 
Context Words: l can not wait 
to 0.265487 
until 0.168142 
for 0.342920 
. 0.223451 
Context Words: km = 1000 m 
) 0.232639 
1 0.270833 
= 0.246528 
, 0.250000 
Context Words: l could not have 
written 0.122449 
done 0.335277 
asked 0.166181 
been 0.376093 
Context Words: b.c. ) , with 
whom 0.213568 
its 0.535176 
which 0.145729 
an 0.105528 
Context Words: icon on the left 
end 0.235955 
is 0.351124 
- 0.278090 
to 0.134831 
Context Words: glad to see you 
again 0.744751 
going 0.028407 
are 0.117332 
but 0.109510 
Context Words: lt was not the 
intention 0.081673 
kind 0.119522 
same 0.147410 
first 0.651394 
Context Words: l do not do 
this 0.154971 
it 0.412281 
anything 0.204678 
that 0.228070 
Context Words: omission of the latter 
is 0.161376 
part 0.230159 
was 0.206349 
, 0.402116 
Context Words: l will try to 
be 0.230769 
explain 0.214575 
make 0.275304 
show 0.279352 
Context Words: l do , " 
she 0.296203 
said 0.245570 
l 0.154430 
he 0.303797 
Context Words: l and c are 
constant 0.164000 
given 0.296000 
connected 0.252000 
equal 0.288000 
Context Words: kg in divided doses 
) 0.163743 
over 0.403509 
every 0.298246 
for 0.134503 
Context Words: b.c. ) , roman 
statesman 0.352941 
comic 0.065744 
general 0.525952 
author 0.055363 
Context Words: lt has also been 
a 0.106719 
observed 0.252964 
suggested 0.570158 
proposed 0.070158 
Context Words: iron and steel works 
-- 0.277311 
on 0.506303 
could 0.102941 
using 0.113445 
Context Words: l do believe that 
we 0.187251 
the 0.470120 
there 0.175299 
it 0.167331 
Context Words: l ) , which 
image 0.175732 
contains 0.179916 
are 0.167364 
in 0.476987 
Context Words: l told them that 
the 0.195652 
it 0.103865 
they 0.125604 
l 0.574879 
Context Words: l was a child 
and 0.052345 
l 0.059978 
, 0.604144 
. 0.283533 
Context Words: oxygen - rich blood 
is 0.319534 
that 0.053040 
through 0.111902 
. 0.515524 
Context Words: mw of installed capacity 
by 0.124661 
in 0.154472 
, 0.401084 
. 0.319783 
Context Words: l am , " 
she 0.356125 
said 0.148148 
l 0.128205 
he 0.367521 
Context Words: omission of the clause 
was 0.244604 
about 0.212230 
from 0.161871 
which 0.381295 
Context Words: lt must have been 
one 0.124224 
the 0.450311 
hard 0.161491 
an 0.263975 
Context Words: l - a - 
( 0.335347 
Z 0.154079 
g 0.190332 
v 0.320242 
Context Words: l know , but 
we 0.116667 
you 0.161111 
it 0.336111 
l 0.386111 
Context Words: l will not let 
them 0.191011 
you 0.382022 
him 0.250936 
it 0.176030 
Context Words: ok to open the 
save 0.127711 
document 0.214458 
select 0.204819 
file 0.453012 
Context Words: tyranny of the majority 
; 0.528445 
: 0.342604 
have 0.051833 
? 0.077118 
Context Words: functions of the body 
) 0.243243 
can 0.599364 
' 0.076312 
proceed 0.081081 
Context Words: rv ) , and 
pulmonary 0.261765 
total 0.135294 
the 0.429412 
left 0.173529 
Context Words: bishop of salisbury , 
born 0.149254 
Thomas 0.160448 
made 0.335821 
when 0.354478 
Context Words: l can not stand 
this 0.179310 
to 0.195402 
the 0.381609 
it 0.243678 
Context Words: dc - 3s , 
a 0.105000 
and 0.562500 
DC 0.195000 
but 0.137500 
Context Words: l can think of 
a 0.139423 
is 0.163462 
no 0.536058 
. 0.161058 
Context Words: ok now , " 
i 0.177686 
said 0.264463 
she 0.206612 
he 0.351240 
Context Words: dc - 8 - 
61 0.410582 
62 0.166138 
63 0.318519 
50 0.104762 
Context Words: dc - 8 , 
a 0.200903 
DC 0.395034 
but 0.126411 
which 0.277652 
Context Words: l am glad to 
be 0.235474 
say 0.293578 
hear 0.140673 
see 0.330275 
Context Words: 7 % of the 
energy 0.515663 
income 0.202410 
former 0.161446 
European 0.120482 
Context Words: l get out of 
this 0.202206 
the 0.341912 
it 0.158088 
here 0.297794 
Context Words: k ) and ( 
1 0.650168 
g 0.040365 
/ 0.148486 
l 0.160980 
Context Words: l do not agree 
that 0.098847 
with 0.626030 
, 0.079077 
. 0.196046 
Context Words: aware of all the 
facilities 0.095861 
tricks 0.220044 
men 0.091503 
people 0.592593 
Context Words: u ) , which 
has 0.114213 
was 0.284264 
are 0.423858 
can 0.177665 
Context Words: utter disregard of the 
opinions 0.063100 
second 0.061728 
principles 0.408779 
laws 0.466392 
Context Words: l know how to 
do 0.477848 
make 0.164557 
use 0.180380 
get 0.177215 
Context Words: md professor and chairman 
department 0.667064 
division 0.028588 
, 0.198928 
of 0.105420 
Context Words: lt should also be 
remembered 0.566456 
emphasized 0.170886 
added 0.109177 
kept 0.153481 
Context Words: urine should be examined 
; 0.078992 
repeatedly 0.099160 
daily 0.334454 
. 0.487395 
Context Words: l know that it 
will 0.120083 
was 0.111801 
is 0.527950 
's 0.240166 
Context Words: rye or wheat , 
and 0.438710 
the 0.190323 
according 0.200000 
or 0.170968 
Context Words: kyoto - osaka area 
) 0.106610 
and 0.127932 
, 0.426439 
. 0.339019 
Context Words: escorted her to the 
sofa 0.240143 
chair 0.207885 
room 0.369176 
church 0.182796 
Context Words: icon to the trash 
( 0.070796 
, 0.079646 
can 0.200590 
. 0.648968 
Context Words: cdu ) and the 
liberal 0.268199 
Christian 0.273946 
free 0.088123 
social 0.369732 
Context Words: l learned a lot 
of 0.095861 
about 0.387800 
from 0.372549 
. 0.143791 
Context Words: rye bread and a 
small 0.257576 
glass 0.207071 
pound 0.287879 
cup 0.247475 
Context Words: oxygen in the water 
sample 0.144495 
( 0.518349 
through 0.119266 
decreases 0.217890 
Context Words: ldl ) - cholesterol 
and 0.250936 
levels 0.250936 
, 0.333333 
. 0.164794 
Context Words: lloyd - jones and 
Lewis 0.341259 
M. 0.183217 
Smith 0.296503 
Margaret 0.179021 
Context Words: ct and london , 
Yale 0.686636 
1992 0.127496 
england 0.070661 
Greenwood 0.115207 
Context Words: icon on the desktop 
) 0.099718 
and 0.196613 
is 0.114770 
or 0.588899 
Context Words: blessed be god , 
even 0.184314 
their 0.133333 
you 0.298039 
she 0.384314 
Context Words: icon from the desktop 
and 0.169192 
to 0.148990 
, 0.500000 
or 0.181818 
Context Words: czechoslovakia and other countries 
of 0.160494 
in 0.118827 
, 0.242284 
. 0.478395 
Context Words: dc - dc converter 
is 0.168303 
with 0.123422 
, 0.345021 
. 0.363254 
Context Words: i. e. at the 
age 0.318339 
trouble 0.141869 
moment 0.280277 
rate 0.259516 
Context Words: ubiquitous in nature , 
and 0.590909 
being 0.165072 
but 0.145933 
occurring 0.098086 
Context Words: okay with it , 
and 0.372500 
i 0.332500 
because 0.107500 
then 0.187500 
Context Words: hygiene and tropical medicine 
and 0.786640 
has 0.072782 
was 0.090728 
, 0.049850 
Context Words: utter ignorance of the 
rules 0.156522 
situation 0.281159 
proximity 0.171014 
laws 0.391304 
Context Words: ct scan shows an 
enlarged 0.188000 
irregular 0.268000 
enhancing 0.316000 
area 0.228000 
Context Words: ct ) in the 
early 0.201571 
evaluation 0.217277 
diagnosis 0.311518 
1970s 0.269634 
Context Words: md professor and vice 
-- 0.151079 
chair 0.250000 
- 0.100719 
chairman 0.498201 
Context Words: ct may be used 
to 0.693380 
as 0.085366 
for 0.121951 
in 0.099303 
Context Words: equality of opportunity for 
youth 0.311334 
boys 0.070301 
promotion 0.137733 
education 0.480631 
Context Words: ct ) scans , 
and 0.503455 
magnetic 0.331688 
or 0.081935 
which 0.082922 
Context Words: equality of opportunity , 
will 0.152941 
you 0.115294 
economic 0.317647 
however 0.414118 
Context Words: pm to 5 pm 
on 0.143451 
, 0.257796 
Monday 0.203742 
. 0.395010 
Context Words: ct scan in the 
evaluation 0.130120 
same 0.486747 
diagnosis 0.279518 
first 0.103614 
Context Words: ct can be used 
to 0.743607 
as 0.071332 
for 0.123149 
in 0.061911 
Context Words: ct scan of his 
brain 0.262467 
chest 0.136483 
head 0.448819 
abdomen 0.152231 
Context Words: ct scan ) , 
and 0.441176 
the 0.142534 
magnetic 0.228507 
or 0.187783 
Context Words: ct scan showing a 
large 0.640244 
small 0.091463 
right 0.150407 
left 0.117886 
Context Words: ct scan has been 
obtained 0.230415 
shown 0.202765 
used 0.276498 
performed 0.290323 
Context Words: bills of exchange , 
book 0.099260 
marine 0.027744 
drafts 0.654131 
receipts 0.218866 
Context Words: ultimate destination of the 
cargo 0.402321 
ship 0.239845 
inmates 0.185687 
song 0.172147 
Context Words: oil and gas exports 
( 0.045740 
is 0.060090 
to 0.364126 
. 0.530045 
Context Words: m.d. professor and chairman 
department 0.718104 
emeritus 0.025759 
, 0.220899 
. 0.035237 
Context Words: k x - ray 
and 0.267925 
energies 0.188679 
energy 0.271698 
spectrum 0.271698 
Context Words: khmer rouge and the 
other 0.109589 
north 0.121005 
Cambodian 0.102740 
Vietnamese 0.666667 
Context Words: k depends on the 
relative 0.183150 
material 0.183150 
nature 0.465201 
choice 0.168498 
Context Words: m.d. professor of psychiatry 
and 0.762749 
; 0.039911 
Harvard 0.044346 
university 0.152993 
Context Words: iaea board of governors 
to 0.127483 
in 0.334437 
meeting 0.221854 
. 0.316225 
Context Words: educate their children , 
particularly 0.164671 
are 0.167665 
for 0.380240 
it 0.287425 
Context Words: oil and gas drilling 
and 0.720000 
funds 0.125714 
ventures 0.105714 
projects 0.048571 
Context Words: fcc federal communications commission 
FDA 0.135081 
( 0.229839 
, 0.120968 
. 0.514113 
Context Words: give place to the 
dark 0.025398 
study 0.020232 
devil 0.918640 
actual 0.035730 
Context Words: lost sight of the 
living 0.291793 
entire 0.130699 
interest 0.346505 
basis 0.231003 
Context Words: luther and calvin , 
on 0.211397 
there 0.281250 
had 0.250000 
by 0.257353 
Context Words: nearly all of the 
Protestant 0.114820 
families 0.361816 
respondents 0.400534 
moisture 0.122830 
Context Words: blessing of god , 
had 0.248954 
than 0.085774 
have 0.492678 
prove 0.172594 
Context Words: s estimate of the 
age 0.155172 
work 0.193103 
likelihood 0.165517 
population 0.486207 
Context Words: oil painting of a 
beautiful 0.222738 
girl 0.109049 
nude 0.382831 
man 0.285383 
Context Words: oil which has been 
mixed 0.142450 
subjected 0.190883 
used 0.547009 
kept 0.119658 
Context Words: s to be done 
! 0.051225 
with 0.403118 
for 0.067929 
. 0.477728 
Context Words: oil on board , 
30 0.245283 
14 0.336478 
signed 0.248428 
23 0.169811 
Context Words: s what it is 
... 0.016112 
; 0.024564 
, 0.430269 
. 0.529054 
Context Words: oil - painting , 
a 0.366013 
with 0.186275 
at 0.160131 
for 0.287582 
Context Words: s no doubt that 
i 0.099213 
the 0.752756 
we 0.080315 
in 0.067717 
Context Words: ultimate success of his 
project 0.112601 
invention 0.410188 
work 0.313673 
plan 0.163539 
Context Words: give attention to the 
case 0.138408 
things 0.491349 
cultivation 0.173010 
possible 0.197232 
Context Words: small boy in a 
very 0.215569 
little 0.200599 
school 0.149701 
red 0.434132 
Context Words: small values of the 
input 0.059086 
difference 0.071349 
frequency 0.132664 
ratio 0.736901 
Context Words: s career as a 
civil 0.208333 
scientist 0.212500 
politician 0.220833 
statesman 0.358333 
Context Words: bank of england , 
his 0.373626 
27 0.206593 
receiving 0.160440 
what 0.259341 
Context Words: bank of commerce , 
Toronto 0.428734 
of 0.375143 
St. 0.141391 
it 0.054732 
Context Words: generally regarded as a 
member 0.271533 
sufficient 0.175182 
disease 0.246715 
public 0.306569 
Context Words: b ) ) , 
of 0.107811 
is 0.606161 
at 0.212321 
using 0.073707 
Context Words: p.m. each day , 
and 0.441734 
the 0.205962 
with 0.208672 
except 0.143631 
Context Words: picked up on the 
bridge 0.110860 
lawn 0.110860 
radio 0.542986 
tape 0.235294 
Context Words: eye - witnesses , 
not 0.071304 
that 0.574493 
are 0.129855 
he 0.224348 
Context Words: university of virginia , 
25 0.082892 
Washington 0.479718 
extension 0.121693 
U.S.A. 0.315697 
Context Words: 71 percent of the 
boys 0.294340 
workers 0.154717 
land 0.332075 
general 0.218868 
Context Words: p.m. there was a 
knock 0.398374 
great 0.239837 
call 0.186992 
violent 0.174797 
Context Words: s face it , 
i 0.216667 
" 0.378333 
when 0.125000 
if 0.280000 
Context Words: b ) with the 
following 0.181087 
exception 0.388330 
initial 0.086519 
court 0.344064 
Context Words: jimmy carter and the 
U.S. 0.196825 
new 0.196825 
american 0.295238 
democrats 0.311111 
Context Words: b and c. if 
we 0.087634 
the 0.800389 
it 0.071081 
an 0.040896 
Context Words: p.m. and 10 p.m. 
) 0.095808 
( 0.091816 
the 0.113772 
, 0.698603 
Context Words: ms - dos files 
and 0.131696 
, 0.229911 
are 0.196429 
. 0.441964 
Context Words: jimmy carter and his 
advisers 0.093315 
administration 0.129526 
family 0.096100 
wife 0.681058 
Context Words: b ) in a 
certain 0.137830 
written 0.202346 
more 0.472141 
few 0.187683 
Context Words: again there was a 
note 0.464387 
certain 0.202279 
whispered 0.119658 
time 0.213675 
Context Words: b - 3 , 
where 0.097285 
4 0.287330 
but 0.135747 
which 0.479638 
Context Words: b ) or ( 
a 0.059263 
c 0.855424 
2 0.072364 
b 0.012949 
Context Words: ms - dos 6.0 
and 0.282084 
or 0.144854 
, 0.365947 
. 0.207116 
Context Words: ms can be used 
to 0.559036 
as 0.109639 
for 0.189157 
in 0.142169 
Context Words: picked up by a 
white 0.307432 
computer 0.293919 
patrolling 0.141892 
later 0.256757 
Context Words: b ) do not 
provide 0.036145 
apply 0.890858 
occur 0.037562 
take 0.035436 
Context Words: b - 2 bomber 
) 0.031771 
program 0.071485 
, 0.460683 
. 0.436060 
Context Words: fbi and other agencies 
of 0.131291 
, 0.284464 
to 0.236324 
. 0.347921 
Context Words: gm and ford , 
and 0.355263 
for 0.179825 
but 0.206140 
which 0.258772 
Context Words: b - 17 's 
were 0.339506 
had 0.094136 
took 0.072531 
. 0.493827 
Context Words: f. history of the 
town 0.069128 
second 0.036921 
criminal 0.075412 
united 0.818539 
Context Words: f. d. maurice , 
a 0.472727 
then 0.145455 
professor 0.239394 
one 0.142424 
Context Words: f. a. davis , 
1928 0.177458 
1982 0.232614 
1980 0.378897 
1979 0.211031 
Context Words: p.m. in summer , 
9 0.160156 
and 0.257812 
with 0.210938 
to 0.371094 
Context Words: absence of such a 
motion 0.315625 
reservation 0.387500 
regular 0.146875 
restraint 0.150000 
Context Words: cities and towns , 
and 0.836563 
respectively 0.004117 
states 0.002083 
but 0.157237 
Context Words: effect of all these 
fresh 0.067059 
was 0.297647 
causes 0.447059 
actions 0.188235 
Context Words: ii ) of the 
second 0.223361 
Indian 0.174180 
electoral 0.190574 
convention 0.411885 
Context Words: pc can be used 
to 0.400901 
as 0.277778 
for 0.222222 
in 0.099099 
Context Words: important part in the 
subsistence 0.078139 
financial 0.373134 
launching 0.060579 
child 0.488147 
Context Words: clear evidence of the 
date 0.135211 
late 0.154930 
validity 0.191549 
relationship 0.518310 
Context Words: birth and death , 
place 0.102446 
love 0.669725 
she 0.113150 
just 0.114679 
Context Words: pc - dos ( 
personal 0.477745 
second 0.166172 
IBM 0.160237 
Ms 0.195846 
Context Words: pc operating systems , 
and 0.206452 
such 0.358065 
the 0.270968 
including 0.164516 
Context Words: 4 ) of the 
coal 0.085714 
U.S. 0.402857 
1962 0.110000 
previous 0.401429 
Context Words: available to perform the 
ceremony 0.118584 
functions 0.208850 
necessary 0.428319 
calculations 0.244248 
Context Words: keep it in the 
shape 0.164835 
hotel 0.172161 
end 0.179487 
basement 0.483516 
Context Words: full of love , 
gratitude 0.305648 
we 0.378738 
passion 0.139535 
yet 0.176080 
Context Words: full discussion of the 
connection 0.093126 
political 0.549889 
principle 0.263858 
special 0.093126 
Context Words: nbc - tv 's 
meet 0.094964 
the 0.070504 
" 0.664748 
today 0.169784 
Context Words: ii of england , 
1 0.236190 
Eleanor 0.125714 
on 0.095238 
he 0.542857 
Context Words: full participation in the 
processes 0.204225 
modern 0.433099 
power 0.211268 
' 0.151408 
Context Words: d - day , 
June 0.246519 
Eisenhower 0.105651 
but 0.320229 
in 0.327600 
Context Words: type of situation , 
even 0.189759 
all 0.162651 
no 0.204819 
an 0.442771 
Context Words: ultimately depends on the 
development 0.176678 
existence 0.353357 
political 0.236749 
size 0.233216 
Context Words: give in to the 
pull 0.321962 
fatigue 0.202559 
disease 0.324094 
urges 0.151386 
Context Words: eastern part of the 
north 0.583293 
central 0.327412 
Hungarian 0.042727 
plains 0.046567 
Context Words: type of man , 
rather 0.048835 
of 0.352941 
to 0.307436 
one 0.290788 
Context Words: 0.5 % of the 
input 0.191617 
full 0.362275 
overall 0.185629 
whole 0.260479 
Context Words: type of person who 
gets 0.349823 
might 0.503534 
wears 0.038869 
seeks 0.107774 
Context Words: d ) and the 
following 0.298561 
other 0.294964 
same 0.230216 
circumstances 0.176259 
Context Words: type of information is 
found 0.249249 
appropriate 0.109610 
critical 0.337838 
that 0.303303 
Context Words: type of product , 
rather 0.144304 
however 0.169620 
for 0.463291 
that 0.222785 
Context Words: chamber of commerce , 
banks 0.102222 
says 0.253333 
they 0.501111 
185 0.143333 
Context Words: d ) it is 
a 0.619281 
expected 0.111111 
evident 0.070261 
difficult 0.199346 
Context Words: d be more than 
a 0.090656 
willing 0.168759 
one 0.071130 
happy 0.669456 
Context Words: d ) and ( 
ii 0.001121 
k 0.003143 
b 0.002875 
e 0.992861 
Context Words: number of others , 
what 0.124294 
without 0.251412 
either 0.282486 
would 0.341808 
Context Words: take account of the 
very 0.115269 
religious 0.540419 
court 0.085329 
quantity 0.258982 
Context Words: d like to discuss 
this 0.252212 
some 0.176991 
something 0.221239 
. 0.349558 
Context Words: d like to keep 
a 0.110345 
this 0.158621 
it 0.583908 
her 0.147126 
Context Words: takes place on the 
application 0.221477 
average 0.370805 
client 0.322148 
various 0.085570 
Context Words: d like to change 
the 0.451697 
about 0.193211 
my 0.151436 
, 0.203655 
Context Words: figure 1 shows the 
profile 0.179445 
optical 0.531811 
solution 0.084829 
complementary 0.203915 
Context Words: estimated to be between 
90 0.189448 
65 0.136691 
500 0.532374 
1000 0.141487 
Context Words: d like to live 
on 0.095865 
in 0.659774 
here 0.169173 
. 0.075188 
Context Words: take place at the 
county 0.209434 
current 0.164151 
period 0.537736 
secondary 0.088679 
Context Words: p.m. to 3 p.m. 
and 0.207182 
on 0.116022 
the 0.154696 
, 0.522099 
Context Words: d love to have 
them 0.049947 
some 0.049947 
you 0.822529 
her 0.077577 
Context Words: d = 2 , 
a 0.150592 
the 0.668359 
where 0.094755 
it 0.086294 
Context Words: take it to the 
mountains 0.096531 
funeral 0.064857 
other 0.663650 
public 0.174962 
Context Words: b. p. ) is 
a 0.731858 
not 0.055752 
made 0.126549 
an 0.085841 
Context Words: during one of the 
regularly 0.066038 
tests 0.088949 
visits 0.770889 
expeditions 0.074124 
Context Words: 35 % of the 
test 0.136364 
tax 0.293939 
controls 0.148485 
seats 0.421212 
Context Words: going back to the 
traditional 0.435930 
palace 0.076633 
lab 0.322864 
stable 0.164573 
Context Words: natural consequence of the 
high 0.434555 
importance 0.228621 
extensive 0.087260 
tendency 0.249564 
Context Words: state in which the 
line 0.127072 
wave 0.116022 
publication 0.135359 
principal 0.621547 
Context Words: english translation of the 
title 0.913328 
divine 0.034843 
terms 0.023084 
first 0.028746 
Context Words: civil war and the 
military 0.186352 
security 0.251969 
transition 0.141732 
foreign 0.419948 
Context Words: american bar association , 
including 0.177515 
for 0.578698 
53 0.056805 
young 0.186982 
Context Words: us look at the 
earth 0.250660 
play 0.200528 
pattern 0.403694 
basis 0.145119 
Context Words: 35 percent of the 
funds 0.434483 
initial 0.241379 
royal 0.165517 
bank 0.158621 
Context Words: king of poland , 
) 0.147541 
III 0.495082 
43 0.147541 
August 0.209836 
